<?xml version="1.0" encoding="UTF-8" standalone="no"?>
<svg
   width="500"
   height="1000"
   viewBox="0 0 500 1000"
   version="1.1"
   id="bmi-1b-underweight"
   xml:space="preserve"
   xmlns="http://www.w3.org/2000/svg"
   xmlns:svg="http://www.w3.org/2000/svg"><defs
     id="defs7" /><path
     id="path2916"
     style="fill:#3366cc;fill-opacity:1;stroke-width:2.28592"
     d="M 241.78823,0.82165445 C 200.9661,2.6907544 188.12143,34.908655 187.99115,52.990755 c -0.0911,12.587 5.70984,31.454 7.77632,36.9526 3.26683,8.6925 7.26821,13.005095 10.53304,18.769095 6.04135,11.5838 3.76305,24.2687 -14.17188,50.7819 -4.04621,5.9815 -11.10529,17.3146 -13.10963,25.9712 -11.4426,49.4182 -3.28104,80.9737 7.45963,131.7634 8.00076,36.3763 19.40094,76.8854 6.71997,103.0538 -17.10832,34.1249 -18.54821,63.409 -6.07017,123.4399 3.99828,19.2354 5.27067,35.3515 6.41418,81.15 2.05758,82.4156 1.59679,100.0744 -5.33301,135.1249 -6.44069,32.5767 -5.55785,53.1925 4.09234,100.0621 7.03667,34.1763 6.06787,49.2486 6.06787,71.6968 0,14.4627 -6.46291,23.6957 -13.32017,38.5373 -9.0216,19.5261 -9.74294,24.5719 -3.99858,27.9177 6.24888,3.63955 24.87713,1.3652 48.35029,-3.5891 22.225,-4.6908 51.28803,-5.7353 68.25916,-2.4527 8.57142,1.6579 11.94029,1.5843 20.96469,-4.1388 11.35455,-7.2008 11.11604,-11.5401 -4.97362,-12.984 -10.00075,-0.8976 -60.2178,-17.1243 -74.81676,-23.4558 l -14.28236,-6.1952 1.3036,-49.394 c 2.10271,-79.5825 4.37912,-98.8682 14.99361,-127.0359 6.86616,-18.2204 9.59365,-29.5596 11.22186,-46.6481 2.16284,-22.6994 -1.17703,-23.8547 11.32243,-82.6352 15.25146,-71.7222 18.07071,-112.2598 17.94343,-175.8264 -0.072,-35.8956 -15.33221,-106.5497 -9.53151,-133.4668 6.54006,-30.3478 26.55478,-37.6426 24.68472,-56.7829 -3.93444,-40.2677 -4.40223,-64.8449 -23.99559,-98.2823 l -11.79312,-20.1259 1.59669,-14.8998 c 1.58488,-14.7994 1.64522,-14.9023 8.84339,-15.1637 3.98597,-0.1447 9.10685,-0.07 11.38206,0.1661 7.53898,0.7836 16.11865,-0.9535 17.77818,-18.6627 1.32973,-14.190295 2.39239,-17.508695 5.89816,-18.425495 5.25997,-1.3755 5.26497,-1.1139 -0.22674,-11.8784 -2.80594,-5.5002 -4.92946,-15.3845 -5.63429,-26.2292 -2.85708,-15.5188 -1.62021,-16.6801 -6.89508,-27.2277 -4.19791,-8.3941 -10.50117,-10.8925 -17.48881,-16.4862006 -10.88815,-8.71616 -20.4404,-6.19809995 -34.16722,-5.56959995 z" /></svg>
