<?xml version="1.0" encoding="UTF-8" standalone="no"?>
<svg
   width="500"
   height="1000"
   viewBox="0 0 500 1000"
   version="1.1"
   id="bmi-2a-normal"
   xml:space="preserve"
   xmlns="http://www.w3.org/2000/svg"
   xmlns:svg="http://www.w3.org/2000/svg"><defs
     id="defs7" /><path
     style="fill:#008341;fill-opacity:1;stroke:none;stroke-width:0.830051"
     d="m 205.59281,57.88513 c -15.0298,0.6988 -6.8105,29.9417 3.3202,31.542 1.3522,17.1107 15.1858,31.3609 10.1507,48.143 -7.3194,24.396 -27.3203,23.7345 -47.503,30.3118 -15.2414,4.9678 -28.0748,14.032 -33.9782,29.4519 -4.5957,12.0034 -5.0736,24.7198 -5.9386,37.3522 -1.4961,21.8488 -2.1037,43.7521 -4.2169,65.5741 -2.4027,24.8136 -10.8012,48.4268 -14.4451,73.0446 -5.1349,34.6903 -6.9926,69.9981 -13.013103,104.5864 -2.6725,15.3534 -12.2645,20.8483 -22.0598,31.5544 -5.3898,5.8908 -8.7594,13.1944 -12.9478,19.9087 -2.2862,3.6648 -10.8892,11.3867 -10.407,15.6482 0.3788,3.3484 5.3491,2.5574 7.4397,1.8078 7.3525,-2.637 11.3998,-10.1058 18.2611,-13.3057 -0.033,12.2624 -3.7983,24.6692 -6.6403,36.5223 -1.0458,4.3619 -4.4809,11.2862 -2.8072,15.722 1.7854,4.7329 6.852,2.8943 8.4107,-0.8176 4.1272,-9.8295 8.6126,-22.6372 10.1674,-33.1657 h 0.8301 c -1.3583,10.5177 -3.5325,21.1449 -5.6451,31.542 -0.6686,3.2905 -3.2974,9.2627 0.099,11.7985 4.2149,3.1459 7.0754,-2.8198 7.9272,-5.9881 2.9529,-10.984 6.2426,-22.0354 8.409203,-33.202 h 0.8303 c -0.1699,8.2316 -1.8037,16.748 -2.971303,24.9015 -0.4506,3.1476 -1.6273,7.9354 1.545503,10.0968 3.8455,2.6187 6.432,-1.9374 6.9862,-5.1173 1.8993,-10.8969 5.185,-22.2021 6.0602,-33.2011 h 0.83 c 0,7.3243 -1.6163,15.2546 -1.2303,22.3989 0.1219,2.2543 1.8261,4.894 4.4435,4.3021 4.8996,-1.1074 4.2363,-12.9886 4.735,-16.7405 2.3743,-17.8553 5.3338,-35.0364 5.3326,-53.1232 -8e-4,-13.5464 4.1796,-24.4676 7.9483,-37.3523 5.0737,-17.3457 10.1618,-34.7627 14.5503,-52.2934 8.8592,-35.3908 10.0187,-72.978 19.8341,-107.9065 h 0.83 c 6.2063,17.0292 4.616,41.0924 3.395,58.9335 -2.8089,41.0113 -11.5046,81.6764 -12.5131,122.8477 -1.3654,55.7288 7.7445,109.8464 11.5336,165.1802 1.851,27.024 -0.043,54.3086 1.8095,81.345 2.8172,41.1489 8.1852,82.043 14.5143,122.8476 3.6472,23.5236 13.4426,54.9079 5.0142,78.0248 -3.6853,10.11 -12.3918,18.975 -18.872,27.3917 -3.9202,5.0881 -22.2661,20.7265 -13.1331,26.2131 16.074,9.66997 44.3597,5.3205 57.047,-8.0931 4.1229,-4.3661 4.2182,-10.5914 7.1195,-15.6299 3.7575,-6.5324 10.0593,-11.0065 10.456,-19.0912 0.5844,-11.9194 -2.3964,-23.839 -3.2122,-35.6923 -1.1397,-16.5428 -0.7687,-33.2103 -0.043,-49.8029 2.2643,-51.7031 9.1015,-103.4452 9.0982,-155.2197 0,-34.8114 1.7655,-68.9912 3.2877,-103.7563 0.7803,-17.8253 -0.7826,-38.2446 3.3527,-55.6136 h 0.83 c 3.229,40.915 6.4562,82.6509 7.458,123.6778 0.5386,22.0338 -1.7539,44.2791 -0.7851,66.4041 1.9762,45.1274 7.0876,90.1353 9.0657,135.2984 0.6367,14.5424 0.4616,29.5247 -0.9387,43.9925 -0.9663,9.9857 -3.9096,20.6685 -3.1019,30.712 0.6157,7.653 6.6129,12.1105 10.3159,18.2612 3.2728,5.4369 3.4223,11.7784 7.9551,16.5678 12.5604,13.2727 42.2745,18.34407 57.8263,7.2049 3.4083,-2.4404 2.037,-6.0014 -0.137,-8.8318 -5.0382,-6.5573 -10.9574,-12.5587 -16.0988,-19.0912 -6.1258,-7.7775 -13.9548,-16.2192 -17.1729,-25.7315 -8.1137,-23.9968 1.9598,-56.1945 5.8668,-80.5152 5.9647,-37.1364 10.9792,-74.5643 13.5463,-112.0567 2.213,-32.3024 0.4276,-64.8213 2.6397,-97.1159 1.4061,-20.5331 5.2718,-40.9349 7.2547,-61.424 3.0853,-31.8772 4.2349,-64.216 3.4489,-96.2858 -0.9761,-39.8624 -9.646,-79.0027 -12.3637,-118.6974 -1.4152,-20.6624 2.2461,-40.9166 2.4154,-61.4238 4.909,2.7043 4.3595,10.721 5.1846,15.771 2.4827,15.1965 4.5296,30.4612 7.0612,45.6528 4.8298,28.9795 12.4284,57.2694 20.4756,85.4953 3.6041,12.64 8.9296,25.2909 11.4298,38.1822 1.9788,10.2022 -0.4632,21.8147 0.8003,32.372 1.5273,12.7613 3.6545,25.433 5.3297,38.1825 0.4158,3.1666 -0.7804,10.506 3.747,11.1376 3.6562,0.5105 4.0232,-3.5592 4.0712,-6.1573 0.1312,-6.9318 -0.8257,-13.7997 -0.8257,-20.7512 h 0.8299 c 2.0968,10.8114 4.5146,21.5189 6.3009,32.3719 0.5305,3.224 2.3074,8.953 6.858,6.5806 3.3723,-1.7581 2.4352,-6.0543 2.007,-9.0708 -1.207,-8.4963 -2.7095,-17.1422 -2.7152,-25.7316 h 0.8301 c 0.8965,10.9766 4.9512,22.6331 8.0059,33.2021 0.8657,2.994 4.3312,8.9595 8.0947,5.3057 2.9383,-2.8528 0.5859,-8.6492 -0.093,-11.9462 -2.0285,-9.8526 -3.9493,-19.9028 -5.2168,-29.8817 h 0.8301 c 1.4792,10.0129 5.578,23.1891 10.0509,32.2815 1.9366,3.9378 7.7305,4.2126 8.5274,-0.7553 0.6306,-3.9337 -1.9558,-9.4402 -2.9127,-13.2651 -2.8721,-11.4897 -8.4258,-26.301 -6.535,-38.1824 6.5516,3.3992 10.4022,10.6147 17.431,13.285 2.1673,0.8234 7.8681,1.763 8.2698,-1.7871 0.4756,-4.2026 -8.0324,-11.9611 -10.2611,-15.6482 -4.0771,-6.7441 -7.741,-14.0585 -13.094,-19.9087 -9.7216,-10.6264 -19.4654,-16.2308 -22.0304,-31.5544 -5.5207,-32.9879 -7.4671,-66.5519 -12.2125,-99.6061 -3.4905,-24.308 -12.0825,-47.8143 -14.4445,-72.2144 -1.8977,-19.5934 -3.3983,-39.283 -4.2591,-58.9337 -0.7264,-16.5953 -0.7388,-34.0289 -6.7278,-49.8031 -6.0932,-16.0515 -19.8322,-24.9638 -35.6372,-29.8604 -20.0804,-6.2221 -39.4091,-6.7407 -46.4472,-30.7333 -4.7188,-16.0881 9.4601,-30.9237 10.7551,-47.313 10.3258,-1.632 18.4271,-30.8397 3.3202,-31.542 0.039,-13.8822 1.3347,-27.4985 -6.7243,-39.8424 -15.2498,-23.3567994 -56.3612,-23.8763994 -73.4761,-2.4903 -9.7713,12.2098 -8.6151,27.6763 -8.6151,42.3327 m 204.1925,494.7107 -0.83,0.83 0.83,-0.83"
     id="path7658" /></svg>
