<?xml version="1.0" encoding="UTF-8" standalone="no"?>
<svg
   width="500"
   height="1000"
   viewBox="0 0 500 1000"
   version="1.1"
   id="bmi-4a-obese"
   xml:space="preserve"
   xmlns="http://www.w3.org/2000/svg"
   xmlns:svg="http://www.w3.org/2000/svg"><defs
     id="defs7" /><path
     style="fill:#ff6600;fill-opacity:1;stroke:none;stroke-width:0.830051"
     d="m 205.5927,57.885124 c -15.0298,0.6988 -6.8107,29.9417 3.3202,31.542 1.3521,17.110696 15.1857,31.360896 10.1507,48.142996 -7.3194,24.396 -27.3203,23.7345 -47.503,30.3118 -15.2414,4.9678 -27.3223,15.8742 -36.7222,28.0857 -8.5264,11.0765 -15.2398,26.086 -16.1048,38.7184 -1.4962,21.8488 -2.1038,43.7521 -4.217,65.5741 -2.4028,24.8136 -10.8012,48.4268 -14.4451,73.0446 -5.1349,34.6903 -6.9927,69.9981 -13.0131,104.5864 -2.6725,15.3534 0.6458,20.8483 -9.1495,31.5544 -5.39,5.8908 -8.7594,13.1944 -12.948,19.9087 -2.286,3.6648 -10.889,11.3867 -10.4069,15.6482 0.3788,3.3484 5.3492,2.5574 7.4398,1.8078 7.3525,-2.637 11.3998,-10.1058 18.2611,-13.3057 -0.033,12.2624 -3.7983,24.6692 -6.6404,36.5223 -1.0457,4.3619 -4.4809,11.2862 -2.8071,15.722 1.7853,4.7329 6.8519,2.8943 8.4106,-0.8176 4.1273,-9.8295 8.6127,-22.6372 10.1675,-33.1657 h 0.83 c -1.3582,10.5177 -3.5325,21.1449 -5.6451,31.542 -0.6686,3.2905 -3.2974,9.2627 0.099,11.7985 4.2149,3.1459 7.0754,-2.8198 7.9271,-5.9881 2.953,-10.984 6.2425,-22.0354 8.4093,-33.202 h 0.8302 c -0.17,8.2316 -1.8036,16.748 -2.9712,24.9015 -0.4507,3.1476 -1.6274,7.9354 1.5455,10.0968 3.8455,2.6187 6.432,-1.9374 6.9862,-5.1173 1.8993,-10.8969 5.1849,-22.2021 6.0602,-33.2011 h 0.83 c 0,7.3243 -1.6164,15.2546 -1.2303,22.3989 0.1217,2.2543 1.8261,4.894 4.4434,4.3021 4.8997,-1.1074 4.2363,-12.9886 4.7351,-16.7405 2.3742,-17.8553 5.3338,-35.0364 5.3326,-53.1232 -8e-4,-13.5464 4.1794,-24.4676 7.9483,-37.3523 5.0736,-17.3457 10.1617,-34.7627 14.5502,-52.2934 8.8593,-35.3908 10.0188,-72.978 19.8341,-107.9065 h 0.83 c 6.2064,17.0292 -7.0071,38.5162 -8.2281,56.3572 -2.8089,41.0112 -28.3524,106.2469 -29.3609,147.4182 -1.3654,55.7289 14.2187,81.3924 21.9074,140.6097 3.4878,26.8618 6.4312,54.3085 8.2835,81.345 2.8173,41.1489 8.1853,82.0431 14.5143,122.8475 3.6472,23.5237 17.3044,57.4843 8.8761,80.6012 -3.6855,10.11 -4.6305,18.975 -11.1107,27.3917 -3.9203,5.0881 -22.2661,20.7265 -13.1331,26.2131 16.074,9.66998 44.3595,5.3205 57.0469,-8.0931 4.123,-4.3661 4.2183,-10.5914 7.1195,-15.6299 3.7576,-6.5324 10.0593,-11.0065 10.456,-19.0912 0.5845,-11.9194 4.0778,-23.839 3.2619,-35.6923 -1.1398,-16.5428 -0.7686,-33.2103 -0.043,-49.8029 2.2643,-51.7031 7.8143,-102.8012 7.8111,-154.5757 0,-34.8114 -1.4717,-68.6692 0.051,-103.4342 0.7803,-17.8253 1.832,-38.2931 1.4028,-56.5797 h 0.8301 c 0.4983,41.3704 -2.2612,84.6024 -1.2593,125.6293 0.5386,22.0337 1.462,44.2629 2.1205,66.3992 1.3232,44.4833 0.3014,90.7841 4.5415,135.9472 1.3606,14.4927 5.6106,26.9293 4.2103,41.3971 -0.9662,9.9857 1.2772,20.6685 2.0849,30.712 0.6158,7.653 6.613,12.1105 10.3159,18.2612 3.2729,5.4369 3.4223,11.7784 7.9551,16.5678 12.5604,13.2727 42.2745,18.34408 57.8263,7.2049 3.4083,-2.4404 2.037,-6.0014 -0.137,-8.8318 -5.0382,-6.5573 -10.9574,-12.5587 -16.0988,-19.0912 -6.1257,-7.7775 -10.093,-17.5073 -13.3111,-27.0197 -8.1137,-23.9967 9.7211,-54.9063 13.6281,-79.227 5.9648,-37.1364 10.9793,-74.5643 13.5465,-112.0567 2.2129,-32.3024 10.8894,-58.4619 14.2628,-90.656 2.6933,-25.7048 11.7455,-48.6829 13.7284,-69.1719 3.0854,-31.8774 4.1972,-44.8174 3.4112,-76.8871 -0.9761,-39.8624 -27.7053,-97.1134 -30.423,-136.8081 -1.4152,-20.6624 -9.377,-40.9166 -9.2076,-61.4238 4.909,2.7043 4.3594,10.721 5.1845,15.771 2.4828,15.1965 4.5297,30.4612 7.0612,45.6528 4.8298,28.9795 12.4284,57.2694 20.4757,85.4953 3.6041,12.64 8.9296,25.2909 11.4297,38.1822 1.9789,10.2022 -0.4631,21.8147 0.8003,32.372 1.5273,12.7613 3.6547,25.433 5.3297,38.1825 0.4159,3.1666 -0.7804,10.506 3.747,11.1376 3.6562,0.5105 4.0232,-3.5592 4.0713,-6.1573 0.1312,-6.9318 -0.8258,-13.7997 -0.8258,-20.7512 h 0.8299 c 2.0968,10.8114 4.5147,21.5189 6.301,32.3719 0.5305,3.224 2.3075,8.953 6.8579,6.5806 3.3723,-1.7581 2.4352,-6.0543 2.007,-9.0708 -1.2069,-8.4963 -2.7094,-17.1422 -2.7151,-25.7316 h 0.83 c 0.8965,10.9766 4.9512,22.6331 8.0059,33.2021 0.8658,2.994 4.3313,8.9595 8.0948,5.3057 2.9382,-2.8528 0.5858,-8.6492 -0.093,-11.9462 -2.0285,-9.8526 -3.9493,-19.9028 -5.2168,-29.8817 h 0.8303 c 1.479,10.0129 5.5779,23.1891 10.0509,32.2815 1.9365,3.9378 7.7303,4.2126 8.5272,-0.7553 0.6306,-3.9337 -1.9557,-9.4402 -2.9127,-13.2651 -2.8721,-11.4897 -8.4258,-26.301 -6.535,-38.1824 6.5516,3.3992 10.4022,10.6147 17.431,13.285 2.1673,0.8234 7.8681,1.763 8.2698,-1.7871 0.4757,-4.2026 -8.0323,-11.9611 -10.2611,-15.6482 -4.0771,-6.7441 -7.741,-14.0585 -13.0939,-19.9087 -9.7217,-10.6264 -5.2301,-16.2308 -7.7951,-31.5544 -5.5208,-32.9879 -7.4671,-66.5519 -12.2126,-99.6061 -3.4904,-24.308 -12.0824,-47.8143 -14.4444,-72.2144 -1.8978,-19.5934 -3.3984,-39.283 -4.2591,-58.9337 -0.7265,-16.5953 -7.5663,-36.2555 -18.219,-50.7207 -9.5019,-12.9023 -22.5764,-24.0462 -38.3814,-28.9428 -20.0804,-6.2221 -39.4091,-6.7407 -46.4472,-30.7333 -4.7188,-16.0881 9.4602,-30.9237 10.7551,-47.312996 10.3258,-1.632 18.4271,-30.8397 3.3203,-31.542 0.039,-13.8822 1.3346,-27.4985 -6.7244,-39.8424 -15.2496,-23.3567999 -56.3612,-23.8763999 -73.4761,-2.4903 -9.7713,12.2098 -8.6151,27.6763 -8.6151,42.3327 m 204.1925,494.710696 -0.83,0.83 0.83,-0.83"
     id="path1439" /></svg>
