<?xml version="1.0" encoding="UTF-8" standalone="no"?>
<svg
   width="2500"
   height="2000"
   viewBox="0 0 2500 2000"
   version="1.1"
   id="bmi"
   xml:space="preserve"
   xmlns="http://www.w3.org/2000/svg"
   xmlns:svg="http://www.w3.org/2000/svg"><defs
     id="defs7" /><path
     style="fill:#ff9900;fill-opacity:1;stroke:none;stroke-width:0.830051"
     d="m 1205.5929,57.8851 c -15.0297,0.6988 -6.8106,29.9417 3.3203,31.542 1.3521,17.1107 15.1857,31.3609 10.1507,48.143 -7.3194,24.396 -27.3203,23.7345 -47.503,30.3118 -15.2414,4.9678 -28.0749,14.032 -33.9782,29.4519 -4.5957,12.0034 -5.0736,24.7198 -5.9386,37.3522 -1.4961,21.8488 -2.1038,43.7521 -4.217,65.5741 -2.4028,24.8136 -10.8012,48.4268 -14.4451,73.0446 -5.1348,34.6903 -6.9927,69.9981 -13.0131,104.5864 -2.6724,15.3534 -12.2644,20.8483 -22.0598,31.5544 -5.3899,5.8908 -8.7594,13.1944 -12.9479,19.9087 -2.286,3.6648 -10.889,11.3867 -10.4068,15.6482 0.3787,3.3484 5.3491,2.5574 7.4397,1.8078 7.3525,-2.637 11.3998,-10.1058 18.2611,-13.3057 -0.033,12.2624 -3.7983,24.6692 -6.6404,36.5223 -1.0457,4.3619 -4.4809,11.2862 -2.8071,15.722 1.7853,4.7329 6.8519,2.8943 8.4105,-0.8176 4.1274,-9.8295 8.6128,-22.6372 10.1676,-33.1657 h 0.83 c -1.3582,10.5177 -3.5324,21.1449 -5.6451,31.542 -0.6686,3.2905 -3.2973,9.2627 0.099,11.7985 4.2148,3.1459 7.0754,-2.8198 7.9271,-5.9881 2.953,-10.984 6.2425,-22.0354 8.4093,-33.202 h 0.8301 c -0.1699,8.2316 -1.8035,16.748 -2.9711,24.9015 -0.4507,3.1476 -1.6274,7.9354 1.5455,10.0968 3.8455,2.6187 6.432,-1.9374 6.9862,-5.1173 1.8993,-10.8969 5.1849,-22.2021 6.0602,-33.2011 h 0.83 c 0,7.3243 -1.6164,15.2546 -1.2303,22.3989 0.1217,2.2543 1.826,4.894 4.4434,4.3021 4.8997,-1.1074 4.2363,-12.9886 4.7351,-16.7405 2.3742,-17.8553 5.3338,-35.0364 5.3326,-53.1232 -8e-4,-13.5464 4.1794,-24.4676 7.9483,-37.3523 5.0736,-17.3457 10.1617,-34.7627 14.5502,-52.2934 8.8593,-35.3908 10.0188,-72.978 19.8341,-107.9065 h 0.83 c 6.2064,17.0292 -7.007,43.688 -8.228,61.529 -2.8088,41.0112 -11.5045,81.6763 -12.5131,122.8476 -1.3653,55.7289 7.7445,109.8465 11.5337,165.1803 1.851,27.024 -0.043,54.3085 1.8094,81.345 2.8173,41.1489 8.1853,82.0431 14.5143,122.8475 3.6472,23.5237 18.5915,56.1769 10.1632,79.2938 -3.6853,10.11 -5.9177,15.1106 -12.3979,23.5273 -3.9203,5.0881 -22.2661,20.7265 -13.1331,26.2131 16.074,9.67 44.3595,5.3205 57.0469,-8.0931 4.123,-4.3661 4.2183,-10.5914 7.1194,-15.6299 3.7577,-6.5324 10.0594,-11.0065 10.4561,-19.0912 0.5845,-11.9194 -2.3963,-23.839 -3.2122,-35.6923 -1.1397,-16.5428 -0.7687,-33.2103 -0.043,-49.8029 2.2643,-51.7031 9.1013,-103.4452 9.0981,-155.2197 0,-34.8114 1.7654,-68.9912 3.2878,-103.7563 0.7803,-17.8253 -0.7827,-38.2446 3.3526,-55.6136 h 0.83 c 3.229,40.915 6.4561,82.6509 7.458,123.6778 0.5387,22.0338 -1.754,44.2791 -0.7852,66.4041 1.9763,45.1274 7.0878,90.1353 9.0658,135.2984 0.6368,14.5424 0.4615,29.5247 -0.9387,43.9925 -0.9662,9.9857 -3.9095,20.6685 -3.1019,30.712 0.6158,7.653 6.6129,12.1105 10.3159,18.2612 3.2728,5.4369 3.4222,11.7784 7.9551,16.5678 12.5604,13.2727 42.2746,18.3441 57.8264,7.2049 3.4083,-2.4404 2.037,-6.0014 -0.137,-8.8318 -5.0384,-6.5573 -10.9576,-12.5587 -16.0988,-19.0912 -6.1258,-7.7775 -7.4809,-20.103 -10.699,-29.6153 -8.1138,-23.9967 8.434,-52.3107 12.341,-76.6314 5.9647,-37.1364 16.1282,-74.5643 18.6954,-112.0567 2.2129,-32.3024 0.4276,-64.8213 2.6397,-97.1159 1.406,-20.5331 5.2717,-40.9349 7.2546,-61.424 3.0854,-31.8772 4.2348,-64.216 3.4488,-96.2858 -0.9761,-39.8624 -17.3694,-79.0027 -20.0871,-118.6974 -1.4152,-20.6624 -8.1276,-40.9166 -7.9582,-61.4238 4.9089,2.7043 4.3595,10.721 5.1846,15.771 2.4826,15.1965 4.5295,30.4612 7.0612,45.6528 4.8298,28.9795 12.4283,57.2694 20.4755,85.4953 3.6042,12.64 8.9297,25.2909 11.4298,38.1822 1.9789,10.2022 -0.4631,21.8147 0.8004,32.372 1.5273,12.7613 3.6545,25.433 5.3296,38.1825 0.4159,3.1666 -0.7804,10.506 3.747,11.1376 3.6561,0.5105 4.0232,-3.5592 4.0712,-6.1573 0.1313,-6.9318 -0.8257,-13.7997 -0.8257,-20.7512 h 0.8299 c 2.0968,10.8114 4.5146,21.5189 6.301,32.3719 0.5305,3.224 2.3074,8.953 6.858,6.5806 3.3723,-1.7581 2.4351,-6.0543 2.007,-9.0708 -1.207,-8.4963 -2.7095,-17.1422 -2.7153,-25.7316 h 0.83 c 0.8967,10.9766 4.9514,22.6331 8.0059,33.2021 0.8658,2.994 4.3314,8.9595 8.0948,5.3057 2.9382,-2.8528 0.586,-8.6492 -0.093,-11.9462 -2.0286,-9.8526 -3.9494,-19.9028 -5.2168,-29.8817 h 0.8301 c 1.479,10.0129 5.5779,23.1891 10.0509,32.2815 1.9365,3.9378 7.7304,4.2126 8.5272,-0.7553 0.6307,-3.9337 -1.9557,-9.4402 -2.9127,-13.2651 -2.8721,-11.4897 -8.4257,-26.301 -6.535,-38.1824 6.5517,3.3992 10.4023,10.6147 17.4312,13.285 2.1672,0.8234 7.8681,1.763 8.2697,-1.7871 0.4756,-4.2026 -8.0324,-11.9611 -10.2611,-15.6482 -4.0772,-6.7441 -7.741,-14.0585 -13.094,-19.9087 -9.7216,-10.6264 -19.4653,-16.2308 -22.0304,-31.5544 -5.5207,-32.9879 -7.467,-66.5519 -12.2126,-99.6061 -3.4904,-24.308 -12.0823,-47.8143 -14.4444,-72.2144 -1.8977,-19.5934 -3.3984,-39.283 -4.259,-58.9337 -0.7266,-16.5953 -0.7389,-34.0289 -6.7278,-49.8031 -6.0933,-16.0515 -19.8322,-24.9638 -35.6372,-29.8604 -20.0806,-6.2221 -39.4092,-6.7407 -46.4472,-30.7333 -4.7188,-16.0881 9.4601,-30.9237 10.755,-47.313 10.3257,-1.632 18.4271,-30.8397 3.3203,-31.542 0.039,-13.8822 1.3347,-27.4985 -6.7243,-39.8424 -15.2498,-23.3568 -56.3613,-23.8764 -73.4763,-2.4903 -9.7712,12.2098 -8.6151,27.6763 -8.6151,42.3327 m 204.1927,494.7107 -0.8301,0.83 0.8301,-0.83"
     id="path1021" /><path
     style="fill:#008341;fill-opacity:1;stroke:none;stroke-width:0.830051"
     d="m 705.59281,57.8851 c -15.0298,0.6988 -6.8105,29.9417 3.3202,31.542 1.3522,17.1107 15.1858,31.3609 10.1507,48.143 -7.3194,24.396 -27.3203,23.7345 -47.503,30.3118 -15.2414,4.9678 -28.0748,14.032 -33.9782,29.4519 -4.5957,12.0034 -5.0736,24.7198 -5.9386,37.3522 -1.4961,21.8488 -2.1037,43.7521 -4.2169,65.5741 -2.4027,24.8136 -10.8012,48.4268 -14.4451,73.0446 -5.1349,34.6903 -6.9926,69.9981 -13.0131,104.5864 -2.6725,15.3534 -12.2645,20.8483 -22.0598,31.5544 -5.3898,5.8908 -8.7594,13.1944 -12.9478,19.9087 -2.2862,3.6648 -10.8892,11.3867 -10.407,15.6482 0.3788,3.3484 5.3491,2.5574 7.4397,1.8078 7.3525,-2.637 11.3998,-10.1058 18.2611,-13.3057 -0.033,12.2624 -3.7983,24.6692 -6.6403,36.5223 -1.0458,4.3619 -4.4809,11.2862 -2.8072,15.722 1.7854,4.7329 6.852,2.8943 8.4107,-0.8176 4.1272,-9.8295 8.6126,-22.6372 10.1674,-33.1657 h 0.8301 c -1.3583,10.5177 -3.5325,21.1449 -5.6451,31.542 -0.6686,3.2905 -3.2974,9.2627 0.099,11.7985 4.2149,3.1459 7.0754,-2.8198 7.9272,-5.9881 2.9529,-10.984 6.2426,-22.0354 8.4092,-33.202 h 0.8303 c -0.1699,8.2316 -1.8037,16.748 -2.9713,24.9015 -0.4506,3.1476 -1.6273,7.9354 1.5455,10.0968 3.8455,2.6187 6.432,-1.9374 6.9862,-5.1173 1.8993,-10.8969 5.185,-22.2021 6.0602,-33.2011 h 0.83 c 0,7.3243 -1.6163,15.2546 -1.2303,22.3989 0.1219,2.2543 1.8261,4.894 4.4435,4.3021 4.8996,-1.1074 4.2363,-12.9886 4.735,-16.7405 2.3743,-17.8553 5.3338,-35.0364 5.3326,-53.1232 -8e-4,-13.5464 4.1796,-24.4676 7.9483,-37.3523 5.0737,-17.3457 10.1618,-34.7627 14.5503,-52.2934 8.8592,-35.3908 10.0187,-72.978 19.8341,-107.9065 h 0.83 c 6.2063,17.0292 4.616,41.0924 3.395,58.9335 -2.8089,41.0113 -11.5046,81.6764 -12.5131,122.8477 -1.3654,55.7288 7.7445,109.8464 11.5336,165.1802 1.851,27.024 -0.043,54.3086 1.8095,81.345 2.8172,41.1489 8.1852,82.043 14.5143,122.8476 3.6472,23.5236 13.4426,54.9079 5.0142,78.0248 -3.6853,10.11 -12.3918,18.975 -18.872,27.3917 -3.9202,5.0881 -22.2661,20.7265 -13.1331,26.2131 16.074,9.67 44.3597,5.3205 57.047,-8.0931 4.1229,-4.3661 4.2182,-10.5914 7.1195,-15.6299 3.7575,-6.5324 10.0593,-11.0065 10.456,-19.0912 0.5844,-11.9194 -2.3964,-23.839 -3.2122,-35.6923 -1.1397,-16.5428 -0.7687,-33.2103 -0.043,-49.8029 2.2643,-51.7031 9.1015,-103.4452 9.0982,-155.2197 0,-34.8114 1.7655,-68.9912 3.2877,-103.7563 0.7803,-17.8253 -0.7826,-38.2446 3.3527,-55.6136 h 0.83 c 3.229,40.915 6.4562,82.6509 7.458,123.6778 0.5386,22.0338 -1.7539,44.2791 -0.7851,66.4041 1.9762,45.1274 7.0876,90.1353 9.0657,135.2984 0.6367,14.5424 0.4616,29.5247 -0.9387,43.9925 -0.9663,9.9857 -3.9096,20.6685 -3.1019,30.712 0.6157,7.653 6.6129,12.1105 10.3159,18.2612 3.2728,5.4369 3.4223,11.7784 7.9551,16.5678 12.5604,13.2727 42.2745,18.3441 57.8263,7.2049 3.4083,-2.4404 2.037,-6.0014 -0.137,-8.8318 -5.0382,-6.5573 -10.9574,-12.5587 -16.0988,-19.0912 -6.1258,-7.7775 -13.9548,-16.2192 -17.1729,-25.7315 -8.1137,-23.9968 1.9598,-56.1945 5.8668,-80.5152 5.9647,-37.1364 10.9792,-74.5643 13.5463,-112.0567 2.213,-32.3024 0.4276,-64.8213 2.6397,-97.1159 1.4061,-20.5331 5.2718,-40.9349 7.2547,-61.424 3.0853,-31.8772 4.2349,-64.216 3.4489,-96.2858 -0.9761,-39.8624 -9.646,-79.0027 -12.3637,-118.6974 -1.4152,-20.6624 2.2461,-40.9166 2.4154,-61.4238 4.909,2.7043 4.3595,10.721 5.1846,15.771 2.4827,15.1965 4.5296,30.4612 7.0612,45.6528 4.8298,28.9795 12.4284,57.2694 20.4756,85.4953 3.6041,12.64 8.9296,25.2909 11.4298,38.1822 1.9788,10.2022 -0.4632,21.8147 0.8003,32.372 1.5273,12.7613 3.6545,25.433 5.3297,38.1825 0.4158,3.1666 -0.7804,10.506 3.747,11.1376 3.6562,0.5105 4.0232,-3.5592 4.0712,-6.1573 0.1312,-6.9318 -0.8257,-13.7997 -0.8257,-20.7512 h 0.8299 c 2.0968,10.8114 4.5146,21.5189 6.3009,32.3719 0.5305,3.224 2.3074,8.953 6.858,6.5806 3.3723,-1.7581 2.4352,-6.0543 2.007,-9.0708 -1.207,-8.4963 -2.7095,-17.1422 -2.7152,-25.7316 h 0.8301 c 0.8965,10.9766 4.9512,22.6331 8.0059,33.2021 0.8657,2.994 4.3312,8.9595 8.0947,5.3057 2.9383,-2.8528 0.5859,-8.6492 -0.093,-11.9462 -2.0285,-9.8526 -3.9493,-19.9028 -5.2168,-29.8817 h 0.8301 c 1.4792,10.0129 5.578,23.1891 10.0509,32.2815 1.9366,3.9378 7.7305,4.2126 8.5274,-0.7553 0.6306,-3.9337 -1.9558,-9.4402 -2.9127,-13.2651 -2.8721,-11.4897 -8.4258,-26.301 -6.535,-38.1824 6.5516,3.3992 10.4022,10.6147 17.431,13.285 2.1673,0.8234 7.8681,1.763 8.2698,-1.7871 0.4756,-4.2026 -8.0324,-11.9611 -10.2611,-15.6482 -4.0771,-6.7441 -7.741,-14.0585 -13.094,-19.9087 -9.7216,-10.6264 -19.4654,-16.2308 -22.0304,-31.5544 -5.5207,-32.9879 -7.4671,-66.5519 -12.2125,-99.6061 -3.4905,-24.308 -12.0825,-47.8143 -14.4445,-72.2144 -1.8977,-19.5934 -3.3983,-39.283 -4.2591,-58.9337 -0.7264,-16.5953 -0.7388,-34.0289 -6.7278,-49.8031 -6.0932,-16.0515 -19.8322,-24.9638 -35.6372,-29.8604 -20.0804,-6.2221 -39.4091,-6.7407 -46.4472,-30.7333 -4.7188,-16.0881 9.4601,-30.9237 10.7551,-47.313 10.3258,-1.632 18.4271,-30.8397 3.3202,-31.542 0.039,-13.8822 1.3347,-27.4985 -6.7243,-39.8424 -15.2498,-23.3568 -56.3612,-23.8764 -73.4761,-2.4903 -9.7713,12.2098 -8.6151,27.6763 -8.6151,42.3327 m 204.1925,494.7107 -0.83,0.83 0.83,-0.83"
     id="path1435" /><path
     style="fill:#3366cc;fill-opacity:1;stroke:none;stroke-width:0.830051"
     d="m 205.59265,57.8851 c -15.02974,0.6988 -6.81057,29.9417 3.32025,31.542 1.3521,17.1107 15.18572,31.3609 10.15065,48.143 -7.31938,24.396 -27.32034,23.7345 -47.50298,30.3118 -15.24142,4.9678 -25.89979,13.3277 -29.45398,29.4519 -2.64585,12.0034 -1.19288,24.0758 -2.05787,36.7082 -1.49616,21.8487 -2.10378,43.7521 -4.21696,65.574 -2.40279,24.8137 -10.80125,48.4269 -14.44514,73.0447 -5.13483,34.6902 -6.99266,69.9981 -13.0131,104.5864 -2.67246,15.3534 -20.669366,21.4923 -30.464646,32.1984 -5.38991,5.8908 -8.75944,13.1944 -12.9479,19.9087 -2.28603,3.6648 -10.88908,11.3867 -10.40691,15.6482 0.37879,3.3484 5.34907,2.5574 7.43974,1.8078 7.35245,-2.637 11.39977,-10.1058 18.26109,-13.3057 -0.0334,12.2624 -3.79828,24.6692 -6.64039,36.5223 -1.04573,4.3619 -4.48087,11.2862 -2.80715,15.722 1.78539,4.7329 6.85193,2.8943 8.41063,-0.8176 4.12727,-9.8295 8.6127,-22.6372 10.16751,-33.1657 h 0.83004 c -1.35826,10.5177 -3.53249,21.1449 -5.64513,31.542 -0.66854,3.2905 -3.29735,9.2627 0.0991,11.7985 4.21483,3.1459 7.07542,-2.8198 7.92714,-5.9881 2.95298,-10.984 6.24257,-22.0354 8.409296,-33.202 h 0.83016 c -0.16991,8.2316 -1.8036,16.748 -2.971186,24.9015 -0.4507,3.1476 -1.62738,7.9354 1.545446,10.0968 3.84554,2.6187 6.43204,-1.9374 6.98624,-5.1173 1.89934,-10.8969 5.18491,-22.2021 6.0602,-33.2011 h 0.83004 c 0,7.3243 -1.61641,15.2546 -1.23039,22.3989 0.12185,2.2543 1.8261,4.894 4.44353,4.3021 4.89958,-1.1074 4.23625,-12.9886 4.73501,-16.7405 2.37428,-17.8553 5.33381,-35.0364 5.33261,-53.1232 -8e-4,-13.5464 -3.58183,-28.3511 0.18699,-41.2359 5.07365,-17.3457 10.16176,-34.7626 14.55025,-52.2933 8.8592,-35.3909 17.78005,-69.0945 27.59541,-104.023 h 0.83003 c 6.20629,17.0292 11.07112,41.7365 9.85011,59.5775 -2.8089,41.0113 -17.95974,81.0324 -18.96826,122.2037 -1.36536,55.7288 21.45128,109.8464 25.24045,165.1802 1.851,27.024 -0.0429,54.3086 1.80949,81.345 2.81721,41.1489 8.18515,82.043 14.51423,122.8476 3.64724,23.5236 -0.26414,54.9079 -8.69245,78.0248 -3.6854,10.11 -12.39183,18.975 -18.87206,27.3917 -3.92025,5.0881 -22.2661,20.7265 -13.13308,26.2131 16.074,9.67 44.35959,5.3205 57.04693,-8.0931 4.12296,-4.3661 4.21831,-10.5914 7.11946,-15.6299 3.75757,-6.5324 10.05932,-11.0065 10.45606,-19.0912 0.58446,-11.9194 -10.6151,-23.839 -11.43094,-35.6923 -1.13974,-16.5428 -0.76871,-33.2103 -0.0429,-49.8029 2.26434,-51.7031 9.10142,-103.4452 9.09821,-155.2197 0,-34.8114 1.76543,-68.9912 3.28772,-103.7563 0.78035,-17.8253 7.4361,-38.2446 11.5714,-55.6136 h 0.83003 c 3.22893,40.915 18.31568,82.6509 19.31758,123.6778 0.5386,22.0338 -1.754,44.2791 -0.7852,66.4041 1.9763,45.1274 7.0877,90.1353 9.0658,135.2984 0.6367,14.5424 0.4615,29.5247 -0.9388,43.9925 -0.9662,9.9857 -15.76909,20.6685 -14.96142,30.712 0.61579,7.653 6.61292,12.1105 10.31592,18.2612 3.2728,5.4369 3.4223,11.7784 7.9551,16.5678 12.5605,13.2727 42.2746,18.3441 57.8265,7.2049 3.4083,-2.4404 2.0368,-6.0014 -0.137,-8.8318 -5.0384,-6.5573 -10.9576,-12.5587 -16.0989,-19.0912 -6.1258,-7.7775 -13.9548,-16.2192 -17.1729,-25.7315 -8.1138,-23.9968 -10.8369,-58.0162 -6.9299,-82.3368 5.9648,-37.1365 10.9792,-74.5644 13.5464,-112.0568 2.2129,-32.3023 0.4276,-64.8212 2.6397,-97.116 1.4061,-20.533 5.2717,-40.9349 7.2546,-61.4239 3.0854,-31.8772 17.0315,-62.3943 16.2455,-94.4641 -0.9761,-39.8624 -15.4575,-79.0027 -18.1752,-118.6974 -1.4152,-20.6624 8.0577,-40.9166 8.227,-61.4238 4.909,2.7043 8.2802,10.1687 10.8455,16.1131 5.8724,13.6082 7.2736,28.1773 9.8051,43.3689 4.8299,28.9795 12.4285,57.2694 20.4757,85.4953 3.6041,12.64 0.5248,27.2327 3.0249,40.124 1.9789,10.2022 -0.4632,21.8147 0.8003,32.372 1.5274,12.7613 3.6546,25.433 5.3296,38.1825 0.4159,3.1666 -0.7803,10.506 3.747,11.1376 3.6562,0.5105 4.0232,-3.5592 4.0713,-6.1573 0.1312,-6.9318 -0.8258,-13.7997 -0.8258,-20.7512 h 0.8299 c 2.0969,10.8114 4.5147,21.5189 6.301,32.3719 0.5305,3.224 2.3075,8.953 6.858,6.5806 3.3724,-1.7581 2.4351,-6.0543 2.0069,-9.0708 -1.2069,-8.4963 -2.7093,-17.1422 -2.7151,-25.7316 h 0.83 c 0.8966,10.9766 4.9513,22.6331 8.0059,33.2021 0.8658,2.994 4.3313,8.9595 8.0948,5.3057 2.9382,-2.8528 0.5859,-8.6492 -0.093,-11.9462 -2.0284,-9.8526 -3.9492,-19.9028 -5.2167,-29.8817 h 0.8302 c 1.479,10.0129 5.5779,23.1891 10.0509,32.2815 1.9365,3.9378 7.7304,4.2126 8.5272,-0.7553 0.6307,-3.9337 -1.9557,-9.4402 -2.9127,-13.2651 -2.8721,-11.4897 -8.4257,-26.301 -6.535,-38.1824 6.5517,3.3992 10.4023,10.6147 17.4311,13.285 2.1673,0.8234 7.868,1.763 8.2698,-1.7871 0.4756,-4.2026 -8.0324,-11.9611 -10.2611,-15.6482 -4.0772,-6.7441 -7.741,-14.0585 -13.094,-19.9087 -9.7217,-10.6264 -27.8702,-15.5868 -30.4353,-30.9104 -5.5208,-32.9879 -7.4671,-66.5519 -12.2126,-99.6061 -3.4904,-24.308 -12.0823,-47.8142 -14.4444,-72.2144 -1.8977,-19.5934 -3.3984,-39.283 -4.259,-58.9337 -0.7266,-16.5952 0.2788,-34.5869 -6.7278,-49.803 -5.7012,-12.381 -11.4274,-25.6079 -27.2324,-30.5045 -20.0805,-6.2221 -39.4092,-6.7407 -46.4472,-30.7333 -4.7189,-16.0881 9.4601,-30.9237 10.7551,-47.313 10.3257,-1.632 18.4271,-30.8397 3.3202,-31.542 0.039,-13.8822 1.3346,-27.4985 -6.7244,-39.8424 -15.2497,-23.3568 -56.36123,-23.8764 -73.47614,-2.4903 -9.77132,12.2098 -8.61512,27.6763 -8.61512,42.3327 m 204.19266,494.7107 -0.83,0.83 0.83,-0.83"
     id="path1437" /><path
     style="fill:#ff6600;fill-opacity:1;stroke:none;stroke-width:0.830051"
     d="m 1705.5927,57.8851 c -15.0298,0.6988 -6.8107,29.9417 3.3202,31.542 1.3521,17.1107 15.1857,31.3609 10.1507,48.143 -7.3194,24.396 -27.3203,23.7345 -47.503,30.3118 -15.2414,4.9678 -27.3223,15.8742 -36.7222,28.0857 -8.5264,11.0765 -15.2398,26.086 -16.1048,38.7184 -1.4962,21.8488 -2.1038,43.7521 -4.217,65.5741 -2.4028,24.8136 -10.8012,48.4268 -14.4451,73.0446 -5.1349,34.6903 -6.9927,69.9981 -13.0131,104.5864 -2.6725,15.3534 0.6458,20.8483 -9.1495,31.5544 -5.39,5.8908 -8.7594,13.1944 -12.948,19.9087 -2.286,3.6648 -10.889,11.3867 -10.4069,15.6482 0.3788,3.3484 5.3492,2.5574 7.4398,1.8078 7.3525,-2.637 11.3998,-10.1058 18.2611,-13.3057 -0.033,12.2624 -3.7983,24.6692 -6.6404,36.5223 -1.0457,4.3619 -4.4809,11.2862 -2.8071,15.722 1.7853,4.7329 6.8519,2.8943 8.4106,-0.8176 4.1273,-9.8295 8.6127,-22.6372 10.1675,-33.1657 h 0.83 c -1.3582,10.5177 -3.5325,21.1449 -5.6451,31.542 -0.6686,3.2905 -3.2974,9.2627 0.099,11.7985 4.2149,3.1459 7.0754,-2.8198 7.9271,-5.9881 2.953,-10.984 6.2425,-22.0354 8.4093,-33.202 h 0.8302 c -0.17,8.2316 -1.8036,16.748 -2.9712,24.9015 -0.4507,3.1476 -1.6274,7.9354 1.5455,10.0968 3.8455,2.6187 6.432,-1.9374 6.9862,-5.1173 1.8993,-10.8969 5.1849,-22.2021 6.0602,-33.2011 h 0.83 c 0,7.3243 -1.6164,15.2546 -1.2303,22.3989 0.1217,2.2543 1.8261,4.894 4.4434,4.3021 4.8997,-1.1074 4.2363,-12.9886 4.7351,-16.7405 2.3742,-17.8553 5.3338,-35.0364 5.3326,-53.1232 -8e-4,-13.5464 4.1794,-24.4676 7.9483,-37.3523 5.0736,-17.3457 10.1617,-34.7627 14.5502,-52.2934 8.8593,-35.3908 10.0188,-72.978 19.8341,-107.9065 h 0.83 c 6.2064,17.0292 -7.0071,38.5162 -8.2281,56.3572 -2.8089,41.0112 -28.3524,106.2469 -29.3609,147.4182 -1.3654,55.7289 14.2187,81.3924 21.9074,140.6097 3.4878,26.8618 6.4312,54.3085 8.2835,81.345 2.8173,41.1489 8.1853,82.0431 14.5143,122.8475 3.6472,23.5237 17.3044,57.4843 8.8761,80.6012 -3.6855,10.11 -4.6305,18.975 -11.1107,27.3917 -3.9203,5.0881 -22.2661,20.7265 -13.1331,26.2131 16.074,9.67 44.3595,5.3205 57.0469,-8.0931 4.123,-4.3661 4.2183,-10.5914 7.1195,-15.6299 3.7576,-6.5324 10.0593,-11.0065 10.456,-19.0912 0.5845,-11.9194 4.0778,-23.839 3.2619,-35.6923 -1.1398,-16.5428 -0.7686,-33.2103 -0.043,-49.8029 2.2643,-51.7031 7.8143,-102.8012 7.8111,-154.5757 0,-34.8114 -1.4717,-68.6692 0.051,-103.4342 0.7803,-17.8253 1.832,-38.2931 1.4028,-56.5797 h 0.8301 c 0.4983,41.3704 -2.2612,84.6024 -1.2593,125.6293 0.5386,22.0337 1.462,44.2629 2.1205,66.3992 1.3232,44.4833 0.3014,90.7841 4.5415,135.9472 1.3606,14.4927 5.6106,26.9293 4.2103,41.3971 -0.9662,9.9857 1.2772,20.6685 2.0849,30.712 0.6158,7.653 6.613,12.1105 10.3159,18.2612 3.2729,5.4369 3.4223,11.7784 7.9551,16.5678 12.5604,13.2727 42.2745,18.3441 57.8263,7.2049 3.4083,-2.4404 2.037,-6.0014 -0.137,-8.8318 -5.0382,-6.5573 -10.9574,-12.5587 -16.0988,-19.0912 -6.1257,-7.7775 -10.093,-17.5073 -13.3111,-27.0197 -8.1137,-23.9967 9.7211,-54.9063 13.6281,-79.227 5.9648,-37.1364 10.9793,-74.5643 13.5465,-112.0567 2.2129,-32.3024 10.8894,-58.4619 14.2628,-90.656 2.6933,-25.7048 11.7455,-48.6829 13.7284,-69.1719 3.0854,-31.8774 4.1972,-44.8174 3.4112,-76.8871 -0.9761,-39.8624 -27.7053,-97.1134 -30.423,-136.8081 -1.4152,-20.6624 -9.377,-40.9166 -9.2076,-61.4238 4.909,2.7043 4.3594,10.721 5.1845,15.771 2.4828,15.1965 4.5297,30.4612 7.0612,45.6528 4.8298,28.9795 12.4284,57.2694 20.4757,85.4953 3.6041,12.64 8.9296,25.2909 11.4297,38.1822 1.9789,10.2022 -0.4631,21.8147 0.8003,32.372 1.5273,12.7613 3.6547,25.433 5.3297,38.1825 0.4159,3.1666 -0.7804,10.506 3.747,11.1376 3.6562,0.5105 4.0232,-3.5592 4.0713,-6.1573 0.1312,-6.9318 -0.8258,-13.7997 -0.8258,-20.7512 h 0.8299 c 2.0968,10.8114 4.5147,21.5189 6.301,32.3719 0.5305,3.224 2.3075,8.953 6.8579,6.5806 3.3723,-1.7581 2.4352,-6.0543 2.007,-9.0708 -1.2069,-8.4963 -2.7094,-17.1422 -2.7151,-25.7316 h 0.83 c 0.8965,10.9766 4.9512,22.6331 8.0059,33.2021 0.8658,2.994 4.3313,8.9595 8.0948,5.3057 2.9382,-2.8528 0.5858,-8.6492 -0.093,-11.9462 -2.0285,-9.8526 -3.9493,-19.9028 -5.2168,-29.8817 h 0.8303 c 1.479,10.0129 5.5779,23.1891 10.0509,32.2815 1.9365,3.9378 7.7303,4.2126 8.5272,-0.7553 0.6306,-3.9337 -1.9557,-9.4402 -2.9127,-13.2651 -2.8721,-11.4897 -8.4258,-26.301 -6.535,-38.1824 6.5516,3.3992 10.4022,10.6147 17.431,13.285 2.1673,0.8234 7.8681,1.763 8.2698,-1.7871 0.4757,-4.2026 -8.0323,-11.9611 -10.2611,-15.6482 -4.0771,-6.7441 -7.741,-14.0585 -13.0939,-19.9087 -9.7217,-10.6264 -5.2301,-16.2308 -7.7951,-31.5544 -5.5208,-32.9879 -7.4671,-66.5519 -12.2126,-99.6061 -3.4904,-24.308 -12.0824,-47.8143 -14.4444,-72.2144 -1.8978,-19.5934 -3.3984,-39.283 -4.2591,-58.9337 -0.7265,-16.5953 -7.5663,-36.2555 -18.219,-50.7207 -9.5019,-12.9023 -22.5764,-24.0462 -38.3814,-28.9428 -20.0804,-6.2221 -39.4091,-6.7407 -46.4472,-30.7333 -4.7188,-16.0881 9.4602,-30.9237 10.7551,-47.313 10.3258,-1.632 18.4271,-30.8397 3.3203,-31.542 0.039,-13.8822 1.3346,-27.4985 -6.7244,-39.8424 -15.2496,-23.3568 -56.3612,-23.8764 -73.4761,-2.4903 -9.7713,12.2098 -8.6151,27.6763 -8.6151,42.3327 m 204.1925,494.7107 -0.83,0.83 0.83,-0.83"
     id="path1439" /><path
     style="fill:#cc0000;fill-opacity:1;stroke:none;stroke-width:0.830051"
     d="m 2205.593,57.8851 c -15.0298,0.6988 -6.8106,29.9417 3.3202,31.542 1.3521,17.1107 15.1856,31.3609 10.1506,48.143 -7.3194,24.396 -29.1475,26.9069 -48.4266,35.7902 -15.9797,7.3633 -24.063,16.5976 -33.0546,27.857 -10.8674,13.6083 -18.1273,30.0119 -23.9978,46.4076 -5.7515,16.064 -8.5777,28.2369 -10.691,50.0589 -2.4027,24.8135 -8.2268,48.4268 -11.8707,73.0445 -5.1349,34.6904 2.056,68.7101 -3.9645,103.2984 -2.6724,15.3535 0.6458,24.7127 -9.1494,35.4188 -5.39,5.8908 -8.7595,13.1944 -12.9479,19.9087 -2.2861,3.6648 -10.8891,11.3867 -10.407,15.6482 0.3789,3.3484 5.3491,2.5574 7.4398,1.8078 7.3524,-2.637 11.3997,-10.1058 18.2611,-13.3057 -0.033,12.2624 -3.7984,24.6692 -6.6405,36.5223 -1.0456,4.3619 -4.4809,11.2862 -2.8071,15.722 1.7854,4.7329 6.8519,2.8943 8.4107,-0.8176 4.1272,-9.8295 8.6127,-22.6372 10.1674,-33.1657 h 0.8301 c -1.3583,10.5177 -3.5325,21.1449 -5.6451,31.542 -0.6685,3.2905 -3.2974,9.2627 0.099,11.7985 4.2149,3.1459 7.0755,-2.8198 7.9271,-5.9881 2.953,-10.984 6.2427,-22.0354 8.4094,-33.202 h 0.8302 c -0.17,8.2316 -1.8037,16.748 -2.9712,24.9015 -0.4507,3.1476 -1.6274,7.9354 1.5454,10.0968 3.8456,2.6187 6.432,-1.9374 6.9862,-5.1173 1.8994,-10.8969 5.1849,-22.2021 6.0603,-33.2011 h 0.83 c 0,7.3243 -1.6164,15.2546 -1.2304,22.3989 0.1218,2.2543 1.8261,4.894 4.4436,4.3021 4.8995,-1.1074 4.2362,-12.9886 4.735,-16.7405 2.3742,-17.8553 5.3338,-35.0364 5.3325,-53.1232 -7e-4,-13.5464 4.1795,-24.4676 7.9484,-37.3523 5.0736,-17.3457 10.1617,-34.7627 14.5502,-52.2934 8.8592,-35.3908 10.0188,-72.978 19.8341,-107.9065 h 0.83 c 6.2063,17.0292 -13.481,35.94 -14.702,53.781 -2.809,41.0112 -32.7704,79.4538 -38.3904,120.2522 -7.4987,54.4359 -19.7136,76.5667 7.9842,162.9163 8.2734,25.793 22.9098,57.8606 24.7621,84.897 2.8172,41.1489 14.6592,83.3505 20.9883,124.1549 3.6472,23.5237 17.3421,62.6368 8.9138,85.7537 -3.6853,10.11 1.8058,16.3987 -4.6744,24.8154 -3.9203,5.0881 -22.2662,20.7265 -13.1332,26.2131 16.074,9.67 44.3597,5.3205 57.0469,-8.0931 4.123,-4.3661 4.2184,-10.5914 7.1196,-15.6299 3.7575,-6.5324 10.0593,-11.0065 10.456,-19.0912 0.5844,-11.9194 6.6522,-23.839 5.8363,-35.6923 -1.1396,-16.5428 -0.7686,-33.2103 -0.043,-49.8029 2.2643,-51.7031 9.1013,-103.4452 9.0981,-155.2197 0,-34.8114 -3.1089,-68.3472 -1.5867,-103.1122 0.7804,-17.8254 -0.8327,-37.591 -2.1966,-56.2577 l 4.0356,-0.345 c -1.778,40.9149 -6.3726,83.6399 -5.3707,124.6668 0.5386,22.0338 -1.7539,44.2791 -0.7853,66.4041 1.9764,45.1274 7.0878,90.1354 9.0659,135.2985 0.6367,14.5424 0.4615,29.5248 -0.9388,43.9925 -0.9662,9.9857 7.0888,20.0244 7.8965,30.0679 0.6158,7.653 6.6129,12.1105 10.3159,18.2612 3.2729,5.4369 3.4222,11.7784 7.9551,16.5678 12.5603,13.2727 42.2745,18.3441 57.8263,7.2049 3.4084,-2.4404 2.037,-6.0014 -0.137,-8.8318 -5.0383,-6.5573 -10.9574,-12.5587 -16.0988,-19.0912 -4.2918,-9.1507 0.2806,-17.5073 -2.9375,-27.0197 -1.6397,-26.5922 5.8215,-54.9063 9.7285,-79.227 5.9648,-37.1364 21.9396,-74.5643 30.3184,-110.7686 2.2129,-32.3024 22.0183,-78.2969 24.2305,-110.5917 1.406,-20.5331 5.2717,-40.9349 7.2546,-61.4239 3.0853,-31.8772 -5.483,-50.7403 -6.269,-82.8102 -0.9761,-39.8623 -38.2908,-80.2907 -41.0086,-119.9854 -1.4151,-20.6624 -14.0305,-44.5736 -17.0604,-65.0808 4.909,2.7043 5.7382,14.378 6.5633,19.428 2.4827,15.1965 4.5296,30.4612 7.0612,45.6528 4.8298,28.9795 12.4284,57.2694 20.4756,85.4953 3.6041,12.64 17.6102,11.8151 20.1103,24.7065 1.9789,10.2023 3.7666,35.2904 5.03,45.8477 1.5275,12.7613 -9.2556,25.433 -7.5805,38.1825 0.4159,3.1666 -0.7804,10.506 3.747,11.1376 3.6562,0.5105 4.0232,-3.5592 4.0712,-6.1573 0.1312,-6.9318 -0.8257,-13.7997 -0.8257,-20.7512 h 0.8299 c 2.0968,10.8114 4.5146,21.5189 6.3009,32.3719 0.5306,3.224 2.3075,8.953 6.858,6.5806 3.3723,-1.7581 2.4352,-6.0543 2.007,-9.0708 -1.207,-8.4963 -2.7094,-17.1422 -2.7152,-25.7316 h 0.8301 c 0.8966,10.9766 4.9512,22.6331 8.0058,33.2021 0.8658,2.994 4.3313,8.9595 8.0948,5.3057 2.9383,-2.8528 0.586,-8.6492 -0.093,-11.9462 -2.0285,-9.8526 -3.9493,-19.9028 -5.2168,-29.8817 h 0.8302 c 1.4791,10.0129 5.5778,23.1891 10.0508,32.2815 1.9366,3.9378 7.7305,4.2126 8.5274,-0.7553 0.6306,-3.9337 -1.9558,-9.4402 -2.9127,-13.2651 -2.8721,-11.4897 -8.4258,-26.301 -6.535,-38.1824 6.5516,3.3992 10.4022,10.6147 17.431,13.285 2.1672,0.8234 7.8681,1.763 8.2698,-1.7871 0.4755,-4.2026 -8.0323,-11.9611 -10.2611,-15.6482 -4.0772,-6.7441 -7.741,-14.0585 -13.094,-19.9087 -9.7216,-10.6264 -3.9429,-18.8264 -6.5079,-34.1498 -5.5208,-32.988 0.2941,-69.1283 -4.4513,-102.1825 -3.4905,-24.3081 -12.0823,-43.9499 -14.4444,-68.35 -1.8976,-19.5934 -5.8791,-41.5356 -12.0203,-60.2218 -5.3045,-16.1398 -11.4102,-25.0917 -20.963,-38.1715 -9.5528,-13.0798 -21.5955,-25.0386 -39.6687,-33.4179 -19.0722,-8.8423 -36.665,-12.2193 -43.7031,-36.2119 -4.7188,-16.0881 9.4601,-30.9237 10.7551,-47.313 10.3258,-1.632 18.4271,-30.8397 3.3202,-31.542 0.039,-13.8822 1.3347,-27.4985 -6.7243,-39.8424 -15.2498,-23.3568 -56.3612,-23.8764 -73.4761,-2.4903 -9.7713,12.2098 -8.6151,27.6763 -8.6151,42.3327 m 204.1925,494.7107 -0.83,0.83 0.83,-0.83"
     id="path1441" /><path
     id="path2016"
     style="fill:#cc0000;fill-opacity:1;stroke-width:2.28363"
     d="m 2244.138,1000.2154 c -45.9884,2.6194 -47.9706,29.7132 -53.1244,50.4886 -2.3129,9.6205 2.0394,32.6114 7.3957,39.0652 3.9031,18.9862 2.696,11.5119 2.5107,18.3505 3.7009,10.2346 -11.4247,29.5352 -22.3129,47.1815 -4.2703,6.9204 -11.3228,21.3176 -15.6718,31.9936 -14.8268,36.3969 -15.5008,40.8285 -17.1848,113.039 l -1.5443,66.2269 -10.7519,40.8145 c -13.932,52.8898 -17.7273,89.3743 -12.1457,116.7565 3.5434,17.3838 6.3557,24.0359 24.5219,58.0306 7.6817,14.3749 7.8285,15.1685 7.9931,43.3897 0.092,15.8107 1.5054,37.9858 3.1413,49.2782 4.1145,28.4018 2.1197,53.1475 -5.8923,73.0972 -6.1737,25.2443 -10.5168,46.5266 -6.4428,73.0757 2.0465,11.9373 12.1165,34.2546 12.1165,34.2546 6.6643,18.84 16.3269,46.8975 21.4723,62.3494 l 9.3558,28.0947 0.538,14.28 c -2.8827,6.5282 -3.5391,15.8306 -5.5878,21.2589 -3.5629,9.4395 -3.5329,10.0105 0.7068,13.1298 6.1794,4.5465 23.5961,8.3621 46.8307,3.0355 20.4936,-4.6983 50.9543,-5.7718 68.3666,-2.4111 10.6334,2.0523 20.8711,-1.6581 32.2177,-11.6833 5.8936,-5.2072 -2.8345,-11.7546 -10.3892,-11.7546 -18.1349,0 -84.6674,-16.7735 -84.6674,-22.3753 0,-1.1713 2.5408,-12.7464 5.6463,-25.7207 7.5809,-31.6671 4.4001,-66.2066 5.7259,-91.0013 1.0803,-20.2037 1.3626,-21.0369 18.5495,-54.8073 15.7998,-31.0447 17.6448,-36.0712 19.4887,-53.0852 2.2962,-21.1865 3.4756,-24.0074 17.6125,-42.0895 15.6779,-20.0535 19.3654,-34.4982 20.6172,-80.7779 l 1.0523,-38.8974 9.7443,-4.0296 c 12.1122,-5.0097 27.2484,-17.7783 34.28,-28.9168 16.8966,-26.7662 17.017,-73.8915 0.3143,-122.5784 -8.3256,-24.2682 -23.8601,-54.7608 -36.2108,-71.0785 -5.9997,-7.9267 -8.4914,-14.3444 -8.4914,-15.4363 0,-1.0921 1.128,-4.1178 5.4613,-5.5478 4.3331,-1.4302 7.8771,-3.4143 10.3095,-6.7167 4.5753,-6.2119 7.1491,-9.1528 6.314,-22.267 -1.2148,-19.0793 -4.5245,-38.3734 -30.8915,-71.1385 -24.8352,-30.8613 -28.8321,-37.9079 -34.856,-61.461 -5.264,-20.5821 -5.1396,-18.8619 -1.351,-18.8619 1.6911,0 6.4298,-1.6733 10.5311,-3.7193 7.2471,-3.6153 17.5347,-1.6169 16.1224,-12.2629 -1.9551,-7.9445 2.2377,-14.9244 1.7551,-21.687 -0.5266,-6.6889 1.6892,-6.6462 5.2882,-7.5873 5.5674,-1.4559 4.1076,-4.0657 -1.5336,-15.1307 -6.1095,-11.9834 -7.1212,-36.1621 -9.3652,-43.0688 -3.2477,-9.9956 -4.6447,-15.6516 -14.3719,-22.2345 -12.4659,-8.4362 -28.7259,-9.68801 -43.193,-8.864 z" /><path
     id="path1452"
     style="fill:#008341;fill-opacity:1;stroke-width:2.28398"
     d="m 745.83819,1000.2383 c -43.38739,3.9175 -51.11015,28.4329 -53.75155,48.7514 -0.886,6.8154 3.61958,32.7712 7.76974,36.9214 1.28351,1.2835 2.33537,5.095 2.33537,8.4688 0,3.3738 1.53476,9.0767 3.41133,12.6748 6.03624,11.574 3.73156,18.958 -14.18819,45.4487 -4.04279,5.9765 -9.93725,17.653 -13.09864,25.9493 -16.23853,42.6149 -13.90736,83.8049 7.45342,131.6518 10.84424,24.2903 17.20781,50.9637 17.41406,73.003 0.13717,14.6646 -0.75033,17.7849 -10.72808,37.6868 -17.09383,34.096 -18.53241,63.3553 -6.06502,123.3354 3.99489,19.2192 5.26621,35.3216 6.40875,81.0813 2.05583,82.3459 0.17266,101.8492 -13.04595,135.0105 -12.20205,30.6112 -11.31994,52.1857 4.08897,99.9774 10.69838,33.1816 13.78009,49.2069 13.78009,71.6362 0,14.4504 -1.14284,19.3331 -7.9943,34.1621 -9.01396,19.5096 -9.7348,28.4126 -3.99519,31.7557 6.24349,3.6364 24.85598,2.8138 48.30938,-2.1363 22.20618,-4.6868 44.58377,-5.3387 68.20138,-2.4506 8.6584,1.0588 10.96902,1.102 19.98568,-4.6162 11.34494,-7.1947 13.52374,-17.3155 4.68454,-17.3155 -10.03243,0 -61.62277,-13.2553 -76.20937,-19.5814 l -14.27017,-6.19 1.3024,-49.3522 c 2.10103,-79.5151 4.37541,-98.7845 14.98101,-126.9284 6.86035,-18.205 9.58554,-29.5345 11.21227,-46.6085 2.16101,-22.6803 3.30955,-26.498 24.79719,-82.5654 24.87828,-64.9145 34.45152,-127.5966 27.56797,-180.4865 -4.62875,-35.5654 -3.70066,-85.2424 2.09523,-112.1367 6.53452,-30.3222 10.13621,-68.489 8.26763,-87.6131 -3.93101,-40.2336 -15.24845,-65.9266 -39.43828,-89.5286 l -14.66669,-14.3093 1.59544,-14.8872 c 1.58344,-14.7868 1.64373,-14.8896 8.8358,-15.1509 3.9827,-0.1445 9.09925,-0.07 11.37243,0.166 7.5326,0.783 10.30997,-4.3262 11.968,-22.0204 1.3287,-14.1783 3.84633,-15.0821 7.34914,-15.9981 5.25541,-1.3744 3.32408,-2.082 -2.16298,-12.8375 -2.80356,-5.4956 -4.44473,-16.8141 -5.14897,-27.6497 -2.85466,-15.5055 -3.00122,-18.1969 -7.56899,-27.5497 -10.48169,-15.3335 -31.78871,-21.32274 -52.85485,-19.7684 z" /><path
     id="path1448"
     style="fill:#ff6600;fill-opacity:1;stroke-width:2.28409"
     d="m 1744.9779,1000.2587 c -36.4592,4.6629 -50.42,23.6239 -53.1645,41.428 -2.2262,17.9318 0.1877,37.0382 5.5302,43.7655 1.2806,1.6126 2.5687,5.988 2.8628,9.7248 0.2939,3.7368 1.7531,8.265 3.2436,10.0607 4.9009,5.9054 -3.0354,28.3205 -23.9,67.5035 -5.6862,10.678 -11.8975,24.5549 -13.8042,30.8362 -4.9127,16.1833 -4.3517,49.844 1.3513,81.085 10.8873,59.6404 10.0794,83.1626 -4.4133,128.5393 -11.3297,35.4737 -11.7386,37.3132 -13.9916,63.1 -2.95,33.7659 1.5259,54.6077 20.1214,93.7039 13.8146,29.0441 16.4084,40.1643 16.4404,70.493 0.05,47.0477 -5.0097,76.2278 -20.4767,118.1077 -6.8465,18.538 -8.3006,41.7678 -3.808,60.8504 1.9635,8.3392 8.8221,29.3476 15.2414,46.6869 21.8616,59.0511 23.9445,76.9123 11.9256,102.2901 -8.4349,17.8101 -7.1979,25.9815 -1.5048,29.2975 6.2374,3.6328 23.1777,2.8817 47.3958,-2.1013 23.5968,-4.8552 53.4538,-5.8576 68.5228,-2.3023 8.0718,1.9044 10.3339,1.4206 19.4144,-4.1496 10.8779,-6.6727 11.3766,-15.3387 3.7876,-16.497 -19.0131,-2.9022 -60.0274,-13.6191 -73.7387,-19.2681 -12.7382,-5.2481 -16.3744,-7.7324 -15.5187,-10.6054 1.4433,-4.8459 7.2272,-39.7146 10.4727,-63.1391 1.3927,-10.05 3.3454,-33.6898 4.3392,-52.5335 -0.4752,-29.6297 1.5789,-33.829 14.5168,-58.425 8.227,-15.6418 13.1891,-28.1273 14.0737,-35.4038 3.7707,-31.0159 6.3542,-39.5884 21.5742,-71.616 15.7979,-33.2433 20.5781,-46.0384 25.2318,-67.5327 3.9398,-18.1971 7.0031,-50.7059 7.0241,-74.5198 0.016,-18.549 0.9252,-24.0352 5.8173,-35.0971 14.5692,-32.9437 16.3966,-69.0228 5.8252,-115.0008 -9.628,-41.8749 -10.3409,-50.9678 -5.6768,-72.3151 6.7016,-30.6724 6.3383,-31.9217 -21.5156,-74.2327 -27.6138,-41.9464 -31.2996,-50.6386 -36.0912,-85.0824 -1.5805,-11.3627 -0.9789,-12.0207 10.4513,-11.3846 8.5542,0.476 10.0773,-3.9344 12.7555,-21.4297 1.8227,-11.9065 3.37,-14.511 6.8773,-15.4282 5.2644,-1.3767 5.2724,-1.0907 -0.3339,-12.0799 -6.0065,-11.7738 -6.5489,-41.1439 -9.8648,-48.1335 -5.3511,-11.2797 -7.0409,-13.9534 -16.4033,-19.8594 -9.3624,-5.9061 -29.2244,-10.78905 -40.5903,-9.3355 z" /><path
     id="path2011"
     style="fill:#ff9900;fill-opacity:1;stroke-width:2.28446"
     d="m 1247.9101,1000.0317 c -43.9704,1.5537 -53.3258,34.9488 -55.3133,56.6677 -0.2282,6.3138 2.7357,26.3485 5.356,28.9891 1.1844,1.1936 2.8894,2.4042 4.0911,6.3678 0.9396,3.0992 1.3859,14.9158 3.08,17.394 8.2351,12.0481 4.8883,20.9512 -9.7186,39.1871 -3.779,4.718 -10.0819,15.6792 -14.0076,24.357 -20.2474,44.758 -21.2337,87.3109 -3.0175,130.287 3.2282,7.616 6.6896,18.9869 7.6913,25.2691 3.0598,19.1915 -1.2324,52.6667 -10.1386,79.0768 -21.7269,64.4291 -22.2333,97.0664 -2.4257,156.2241 13.9766,41.7431 15.7475,54.3679 14.0857,100.4828 -1.4574,40.4447 -4.4154,59.1104 -13.0349,82.2741 -2.8054,7.5387 -6.7237,21.112 -8.7069,30.1635 -5.0173,22.9003 -1.7112,42.9163 15.4743,93.7153 14.4123,42.6012 19.699,68.3865 16.3357,79.6569 -1.0891,3.6493 -4.6496,12.2904 -7.9139,19.2009 -6.5281,13.8202 -7.4055,23.8785 -3.2382,28.0457 4.132,4.1322 23.5607,3.3076 50.0539,-2.1249 19.9928,-4.0997 28.2723,-1.8022 52.3604,-3.4434 l 27.1846,2.8812 9.9593,-8.4787 c 8.9202,-7.594 9.2684,-14.5968 0.6797,-14.5968 -9.3519,0 -61.5149,-13.8213 -75.0652,-19.8902 -9.5476,-4.2763 -12.901,-6.9165 -12.1619,-9.5702 4.6972,-16.864 6.2125,-73.4517 12.4197,-115.6856 5.2229,-35.537 4.1119,-26.8895 14.5252,-58.9562 13.3582,-20.6215 15.0779,-25.8786 19.9137,-60.8955 1.3014,-9.4232 7.6044,-33.5813 14.0056,-53.6846 19.036,-59.7813 24.9357,-95.0317 25.0446,-149.6324 0.051,-25.4763 1.0567,-34.6162 5.7831,-52.5441 9.2568,-35.1124 11.4957,-69.6994 8.2694,-127.7381 -1.5276,-27.4799 -4.2958,-55.7871 -6.1503,-62.9072 -1.8546,-7.1201 -11.5883,-28.946 -21.6325,-48.5012 -10.0441,-19.5552 -19.4019,-39.7975 -20.7945,-44.9817 -1.3926,-5.1843 -4.6577,-15.4761 -7.2558,-22.8727 -4.6522,-13.2445 -4.6568,-13.4985 -0.3301,-16.6657 2.422,-1.773 6.7204,-2.6323 9.5799,-1.916 8.0681,2.0211 14.6527,-2.6339 13.8983,-9.8261 -0.2018,-6.7875 2.2633,-13.3704 1.8242,-19.4429 -0.5454,-6.9251 0.6954,-6.1546 5.1349,-7.6345 0,0 1.7191,0.4459 2.4084,-1.2867 1.2388,-3.1136 -4.748,-8.8612 -4.748,-8.8612 -6.6412,-12.3911 -6.2323,-40.023 -9.4659,-50.2597 -2.6539,-8.4015 -8.5224,-13.2017 -16.8683,-19.559 -6.4419,-4.907 -25.2956,-8.70439 -37.1713,-8.2848 z" /><path
     id="path2916"
     style="fill:#3366cc;fill-opacity:1;stroke-width:2.28592"
     d="m 246.49009,1000.8216 c -40.82213,1.8691 -53.6668,34.087 -53.79708,52.1691 -0.0911,12.587 5.70984,31.454 7.77632,36.9526 3.26683,8.6925 7.26821,13.0051 10.53304,18.7691 6.04135,11.5838 3.76305,24.2687 -14.17188,50.7819 -4.04621,5.9815 -11.10529,17.3146 -13.10963,25.9712 -11.4426,49.4182 -3.28104,80.9737 7.45963,131.7634 8.00076,36.3763 19.40094,76.8854 6.71997,103.0538 -17.10832,34.1249 -18.54821,63.409 -6.07017,123.4399 3.99828,19.2354 5.27067,35.3515 6.41418,81.15 2.05758,82.4156 1.59679,100.0744 -5.33301,135.1249 -6.44069,32.5767 -5.55785,53.1925 4.09234,100.0621 7.03667,34.1763 6.06787,49.2486 6.06787,71.6968 0,14.4627 -6.46291,23.6957 -13.32017,38.5373 -9.0216,19.5261 -9.74294,24.5719 -3.99858,27.9177 6.24888,3.6396 24.87713,1.3652 48.35029,-3.5891 22.225,-4.6908 51.28803,-5.7353 68.25916,-2.4527 8.57142,1.6579 11.94029,1.5843 20.96469,-4.1388 11.35455,-7.2008 11.11604,-11.5401 -4.97362,-12.984 -10.00075,-0.8976 -60.2178,-17.1243 -74.81676,-23.4558 l -14.28236,-6.1952 1.3036,-49.394 c 2.10271,-79.5825 4.37912,-98.8682 14.99361,-127.0359 6.86616,-18.2204 9.59365,-29.5596 11.22186,-46.6481 2.16284,-22.6994 -1.17703,-23.8547 11.32243,-82.6352 15.25146,-71.7222 18.07071,-112.2598 17.94343,-175.8264 -0.072,-35.8956 -15.33221,-106.5497 -9.53151,-133.4668 6.54006,-30.3478 26.55478,-37.6426 24.68472,-56.7829 -3.93444,-40.2677 -4.40223,-64.8449 -23.99559,-98.2823 l -11.79312,-20.1259 1.59669,-14.8998 c 1.58488,-14.7994 1.64522,-14.9023 8.84339,-15.1637 3.98597,-0.1447 9.10685,-0.07 11.38206,0.1661 7.53898,0.7836 16.11865,-0.9535 17.77818,-18.6627 1.32973,-14.1903 2.39239,-17.5087 5.89816,-18.4255 5.25997,-1.3755 5.26497,-1.1139 -0.22674,-11.8784 -2.80594,-5.5002 -4.92946,-15.3845 -5.63429,-26.2292 -2.85708,-15.5188 -1.62021,-16.6801 -6.89508,-27.2277 -4.19791,-8.3941 -10.50117,-10.8925 -17.48881,-16.4862 -10.88815,-8.71616 -20.4404,-6.1981 -34.16722,-5.5696 z" /></svg>
