<?xml version="1.0" encoding="UTF-8" standalone="no"?>
<!-- Created with Inkscape (http://www.inkscape.org/) -->

<svg
   xmlns:dc="http://purl.org/dc/elements/1.1/"
   xmlns:cc="http://creativecommons.org/ns#"
   xmlns:rdf="http://www.w3.org/1999/02/22-rdf-syntax-ns#"
   xmlns:svg="http://www.w3.org/2000/svg"
   xmlns="http://www.w3.org/2000/svg"
   xmlns:xlink="http://www.w3.org/1999/xlink"
   xmlns:sodipodi="http://sodipodi.sourceforge.net/DTD/sodipodi-0.dtd"
   xmlns:inkscape="http://www.inkscape.org/namespaces/inkscape"
   width="260"
   height="260"
   id="svg2"
   inkscape:label="Pozadí"
   version="1.1"
   inkscape:version="0.48.5 r10040"
   sodipodi:docname="logo_text.svg">
  <defs
     id="defs3">
    <linearGradient
       id="linearGradient3915">
      <stop
         id="stop3917"
         offset="0"
         style="stop-color:#b2b2b2;stop-opacity:1;" />
      <stop
         style="stop-color:#fafafa;stop-opacity:1;"
         offset="0.5"
         id="stop3919" />
      <stop
         id="stop3921"
         offset="1"
         style="stop-color:#b2b2b2;stop-opacity:1;" />
    </linearGradient>
    <linearGradient
       id="linearGradient3897">
      <stop
         style="stop-color:#242424;stop-opacity:1;"
         offset="0"
         id="stop3899" />
      <stop
         id="stop3905"
         offset="0.5"
         style="stop-color:#666666;stop-opacity:1;" />
      <stop
         style="stop-color:#1a1a1a;stop-opacity:1;"
         offset="1"
         id="stop3901" />
    </linearGradient>
    <linearGradient
       inkscape:collect="always"
       xlink:href="#linearGradient3897"
       id="linearGradient3903"
       x1="417.07455"
       y1="528.48505"
       x2="428.81949"
       y2="556.13794"
       gradientUnits="userSpaceOnUse"
       gradientTransform="translate(0,-2.6476281e-4)" />
    <linearGradient
       inkscape:collect="always"
       xlink:href="#linearGradient3915"
       id="linearGradient3913"
       x1="432.60104"
       y1="565.55243"
       x2="418.18622"
       y2="528.4292"
       gradientUnits="userSpaceOnUse" />
    <linearGradient
       inkscape:collect="always"
       xlink:href="#linearGradient3915"
       id="linearGradient3929"
       x1="421.93622"
       y1="540.28784"
       x2="414.31284"
       y2="520.71606"
       gradientUnits="userSpaceOnUse"
       gradientTransform="matrix(0.99193611,0.00490891,-0.00488839,1.00073,5.9386195,-2.4412712)" />
    <linearGradient
       inkscape:collect="always"
       xlink:href="#linearGradient3915"
       id="linearGradient3942"
       gradientUnits="userSpaceOnUse"
       x1="432.60104"
       y1="565.55243"
       x2="418.18622"
       y2="528.4292" />
    <linearGradient
       inkscape:collect="always"
       xlink:href="#linearGradient3897"
       id="linearGradient3944"
       gradientUnits="userSpaceOnUse"
       gradientTransform="translate(0,-2.6476281e-4)"
       x1="417.07455"
       y1="528.48505"
       x2="428.81949"
       y2="556.13794" />
    <linearGradient
       inkscape:collect="always"
       xlink:href="#linearGradient3915"
       id="linearGradient3946"
       gradientUnits="userSpaceOnUse"
       gradientTransform="matrix(0.99193611,0.00490891,-0.00488839,1.00073,5.9386195,-2.4412712)"
       x1="421.93622"
       y1="540.28784"
       x2="414.31284"
       y2="520.71606" />
  </defs>
  <sodipodi:namedview
     id="base"
     pagecolor="#ffffff"
     bordercolor="#666666"
     borderopacity="1.0"
     inkscape:pageopacity="0.0"
     inkscape:pageshadow="2"
     inkscape:zoom="0.7"
     inkscape:cx="-147.76018"
     inkscape:cy="-79.815344"
     inkscape:document-units="px"
     inkscape:current-layer="layer1"
     showgrid="false"
     inkscape:window-width="1280"
     inkscape:window-height="751"
     inkscape:window-x="0"
     inkscape:window-y="0"
     inkscape:window-maximized="1" />
  <metadata
     id="metadata6">
    <rdf:RDF>
      <cc:Work
         rdf:about="">
        <dc:format>image/svg+xml</dc:format>
        <dc:type
           rdf:resource="http://purl.org/dc/dcmitype/StillImage" />
        <dc:title></dc:title>
      </cc:Work>
    </rdf:RDF>
  </metadata>
  <g
     inkscape:label="Vrstva 1"
     inkscape:groupmode="layer"
     id="layer1"
     transform="translate(0,-792.36218)">
    <g
       id="g3935"
       transform="matrix(6.2043251,0,0,6.2043251,-2488.1282,-2438.2961)">
      <path
         sodipodi:nodetypes="ccsssc"
         inkscape:connector-curvature="0"
         id="path3049"
         d="m 433.4375,522.4375 -31.625,11.84375 c -0.51194,1.81391 -0.78125,3.70978 -0.78125,5.6875 0,11.57626 9.39249,20.96875 20.96875,20.96875 11.57626,0 20.9375,-9.39249 20.9375,-20.96875 0,-7.34972 -3.77515,-13.7893 -9.5,-17.53125 z"
         style="fill:url(#linearGradient3942);fill-opacity:1;stroke:none" />
      <path
         inkscape:connector-curvature="0"
         id="path3863"
         d="m 429.84375,523.78098 -24.71875,9.21875 c -0.004,0.009 0.004,0.0224 0,0.0312 -0.91959,2.14143 -1.4375,4.46817 -1.4375,6.9375 0,9.91828 8.19697,17.96875 18.3125,17.96875 10.11553,0 18.3125,-8.05047 18.3125,-17.96875 0,-7.15833 -4.28862,-13.30232 -10.46875,-16.1875 z"
         style="fill:url(#linearGradient3944);fill-opacity:1;stroke:none" />
      <path
         sodipodi:nodetypes="ccsc"
         inkscape:connector-curvature="0"
         id="path3865"
         d="m 433.42138,522.39009 -31.627,11.81381 c 3.14619,1.6297 6.73859,2.56473 10.53312,2.55825 9.61377,-0.0163 17.80095,-5.98296 21.09388,-14.37206 z"
         style="fill:url(#linearGradient3946);fill-opacity:1;stroke:none" />
    </g>
  </g>
</svg>
