<?xml version="1.0" encoding="UTF-8"?><svg xmlns="http://www.w3.org/2000/svg" xmlns:xlink="http://www.w3.org/1999/xlink" fill-opacity="1" color-rendering="auto" color-interpolation="auto" text-rendering="auto" stroke="black" stroke-linecap="square" width="801" stroke-miterlimit="10" shape-rendering="auto" stroke-opacity="1" fill="black" stroke-dasharray="none" font-weight="normal" stroke-width="1" height="748" font-family="'Dialog'" font-style="normal" stroke-linejoin="miter" font-size="12px" stroke-dashoffset="0" image-rendering="auto">
  <!--Generated by ySVG 2.6-->
  <defs id="genericDefs"/>
  <g>
    <defs id="defs1">
      <linearGradient x1="409.2618" gradientUnits="userSpaceOnUse" x2="493.3556" y1="131" y2="188.5448" id="linearGradient1" spreadMethod="reflect">
        <stop stop-opacity="1" stop-color="rgb(232,238,247)" offset="0%"/>
        <stop stop-opacity="1" stop-color="rgb(183,201,227)" offset="100%"/>
      </linearGradient>
      <linearGradient x1="374.8087" gradientUnits="userSpaceOnUse" x2="527.8087" y1="208.5448" y2="293.5448" id="linearGradient2" spreadMethod="reflect">
        <stop stop-opacity="1" stop-color="rgb(232,238,247)" offset="0%"/>
        <stop stop-opacity="1" stop-color="rgb(183,201,227)" offset="100%"/>
      </linearGradient>
      <linearGradient x1="368.8087" gradientUnits="userSpaceOnUse" x2="529.8087" y1="456.5448" y2="541.5448" id="linearGradient3" spreadMethod="reflect">
        <stop stop-opacity="1" stop-color="rgb(232,238,247)" offset="0%"/>
        <stop stop-opacity="1" stop-color="rgb(183,201,227)" offset="100%"/>
      </linearGradient>
      <linearGradient x1="409.0587" gradientUnits="userSpaceOnUse" x2="570.0587" y1="324.5448" y2="409.5448" id="linearGradient4" spreadMethod="reflect">
        <stop stop-opacity="1" stop-color="rgb(232,238,247)" offset="0%"/>
        <stop stop-opacity="1" stop-color="rgb(183,201,227)" offset="100%"/>
      </linearGradient>
      <linearGradient x1="147.0587" gradientUnits="userSpaceOnUse" x2="289.0587" y1="588.5448" y2="628.5448" id="linearGradient5" spreadMethod="reflect">
        <stop stop-opacity="1" stop-color="rgb(232,238,247)" offset="0%"/>
        <stop stop-opacity="1" stop-color="rgb(183,201,227)" offset="100%"/>
      </linearGradient>
      <linearGradient x1="559.426" gradientUnits="userSpaceOnUse" x2="688.0002" y1="588.5448" y2="628.5448" id="linearGradient6" spreadMethod="reflect">
        <stop stop-opacity="1" stop-color="rgb(232,238,247)" offset="0%"/>
        <stop stop-opacity="1" stop-color="rgb(183,201,227)" offset="100%"/>
      </linearGradient>
      <linearGradient x1="378.839" gradientUnits="userSpaceOnUse" x2="462.9328" y1="659.5448" y2="717.0897" id="linearGradient7" spreadMethod="reflect">
        <stop stop-opacity="1" stop-color="rgb(232,238,247)" offset="0%"/>
        <stop stop-opacity="1" stop-color="rgb(183,201,227)" offset="100%"/>
      </linearGradient>
      <linearGradient x1="231.7618" gradientUnits="userSpaceOnUse" x2="315.8556" y1="131" y2="188.5448" id="linearGradient8" spreadMethod="reflect">
        <stop stop-opacity="1" stop-color="rgb(232,238,247)" offset="0%"/>
        <stop stop-opacity="1" stop-color="rgb(183,201,227)" offset="100%"/>
      </linearGradient>
      <linearGradient x1="202.8087" gradientUnits="userSpaceOnUse" x2="344.8087" y1="231.0448" y2="271.0448" id="linearGradient9" spreadMethod="reflect">
        <stop stop-opacity="1" stop-color="rgb(204,255,204)" offset="0%"/>
        <stop stop-opacity="1" stop-color="rgb(204,255,204)" offset="100%"/>
      </linearGradient>
      <linearGradient x1="193.3087" gradientUnits="userSpaceOnUse" x2="354.3087" y1="324.5448" y2="409.5448" id="linearGradient10" spreadMethod="reflect">
        <stop stop-opacity="1" stop-color="rgb(232,238,247)" offset="0%"/>
        <stop stop-opacity="1" stop-color="rgb(183,201,227)" offset="100%"/>
      </linearGradient>
      <linearGradient x1="559.8089" gradientUnits="userSpaceOnUse" x2="687.6173" y1="479.0448" y2="519.0448" id="linearGradient11" spreadMethod="reflect">
        <stop stop-opacity="1" stop-color="rgb(232,238,247)" offset="0%"/>
        <stop stop-opacity="1" stop-color="rgb(183,201,227)" offset="100%"/>
      </linearGradient>
      <linearGradient x1="177.8087" gradientUnits="userSpaceOnUse" x2="338.8087" y1="456.5448" y2="541.5448" id="linearGradient12" spreadMethod="reflect">
        <stop stop-opacity="1" stop-color="rgb(232,238,247)" offset="0%"/>
        <stop stop-opacity="1" stop-color="rgb(183,201,227)" offset="100%"/>
      </linearGradient>
      <linearGradient x1="20.0002" gradientUnits="userSpaceOnUse" x2="147.8086" y1="479.0448" y2="519.0448" id="linearGradient13" spreadMethod="reflect">
        <stop stop-opacity="1" stop-color="rgb(232,238,247)" offset="0%"/>
        <stop stop-opacity="1" stop-color="rgb(183,201,227)" offset="100%"/>
      </linearGradient>
      <linearGradient x1="677.0706" gradientUnits="userSpaceOnUse" x2="761.1644" y1="131" y2="188.5448" id="linearGradient14" spreadMethod="reflect">
        <stop stop-opacity="1" stop-color="rgb(232,238,247)" offset="0%"/>
        <stop stop-opacity="1" stop-color="rgb(183,201,227)" offset="100%"/>
      </linearGradient>
      <linearGradient x1="648.1174" gradientUnits="userSpaceOnUse" x2="790.1174" y1="231.0448" y2="271.0448" id="linearGradient15" spreadMethod="reflect">
        <stop stop-opacity="1" stop-color="rgb(204,255,204)" offset="0%"/>
        <stop stop-opacity="1" stop-color="rgb(204,255,204)" offset="100%"/>
      </linearGradient>
      <linearGradient x1="655.2133" gradientUnits="userSpaceOnUse" x2="783.0217" y1="347.0448" y2="387.0448" id="linearGradient16" spreadMethod="reflect">
        <stop stop-opacity="1" stop-color="rgb(232,238,247)" offset="0%"/>
        <stop stop-opacity="1" stop-color="rgb(183,201,227)" offset="100%"/>
      </linearGradient>
      <clipPath clipPathUnits="userSpaceOnUse" id="clipPath1">
        <path d="M0 0 L801 0 L801 748 L0 748 L0 0 Z"/>
      </clipPath>
      <clipPath clipPathUnits="userSpaceOnUse" id="clipPath2">
        <path d="M5 -15 L806 -15 L806 733 L5 733 L5 -15 Z"/>
      </clipPath>
    </defs>
    <g fill="white" text-rendering="geometricPrecision" shape-rendering="geometricPrecision" transform="translate(-5,15)" stroke="white">
      <rect x="5" width="801" height="748" y="-15" clip-path="url(#clipPath2)" stroke="none"/>
    </g>
    <g fill="url(#linearGradient1)" text-rendering="geometricPrecision" shape-rendering="geometricPrecision" transform="matrix(1,0,0,1,-5,15)" stroke="url(#linearGradient1)">
      <circle r="28.7724" clip-path="url(#clipPath2)" cx="451.3087" cy="159.7724" stroke="none"/>
    </g>
    <g text-rendering="geometricPrecision" stroke-miterlimit="1.45" shape-rendering="geometricPrecision" transform="matrix(1,0,0,1,-5,15)" stroke-linecap="butt">
      <circle fill="none" r="28.7724" clip-path="url(#clipPath2)" cx="451.3087" cy="159.7724"/>
      <text x="428.8878" xml:space="preserve" y="164.3076" clip-path="url(#clipPath2)" font-family="sans-serif" stroke="none">Začátek</text>
    </g>
    <g fill="url(#linearGradient2)" text-rendering="geometricPrecision" shape-rendering="geometricPrecision" transform="matrix(1,0,0,1,-5,15)" stroke="url(#linearGradient2)">
      <path d="M451.3087 208.5448 L527.8087 251.0448 L451.3087 293.5448 L374.8087 251.0448 Z" stroke="none" clip-path="url(#clipPath2)"/>
    </g>
    <g text-rendering="geometricPrecision" stroke-miterlimit="1.45" shape-rendering="geometricPrecision" transform="matrix(1,0,0,1,-5,15)" stroke-linecap="butt">
      <path fill="none" d="M451.3087 208.5448 L527.8087 251.0448 L451.3087 293.5448 L374.8087 251.0448 Z" clip-path="url(#clipPath2)"/>
      <text x="399.9044" xml:space="preserve" y="248.5136" clip-path="url(#clipPath2)" font-family="sans-serif" stroke="none">Je režim nastaven</text>
      <text x="415.0743" xml:space="preserve" y="262.6464" clip-path="url(#clipPath2)" font-family="sans-serif" stroke="none">v prohlížeči?</text>
    </g>
    <g font-size="24px" stroke-linecap="butt" transform="matrix(1,0,0,1,-5,15)" text-rendering="geometricPrecision" font-family="sans-serif" shape-rendering="geometricPrecision" stroke-miterlimit="1.45">
      <text x="235.1525" xml:space="preserve" y="28.0703" clip-path="url(#clipPath2)" stroke="none">Přepínání světlého a tmavého režimu</text>
    </g>
    <g fill="url(#linearGradient3)" text-rendering="geometricPrecision" shape-rendering="geometricPrecision" transform="matrix(1,0,0,1,-5,15)" stroke="url(#linearGradient3)">
      <path d="M449.3087 456.5448 L529.8087 499.0448 L449.3087 541.5448 L368.8087 499.0448 Z" stroke="none" clip-path="url(#clipPath2)"/>
    </g>
    <g text-rendering="geometricPrecision" stroke-miterlimit="1.45" shape-rendering="geometricPrecision" transform="matrix(1,0,0,1,-5,15)" stroke-linecap="butt">
      <path fill="none" d="M449.3087 456.5448 L529.8087 499.0448 L449.3087 541.5448 L368.8087 499.0448 Z" clip-path="url(#clipPath2)"/>
      <text x="412.1163" xml:space="preserve" y="489.4472" clip-path="url(#clipPath2)" font-family="sans-serif" stroke="none">Je v zařízení </text>
      <text x="423.4835" xml:space="preserve" y="503.58" clip-path="url(#clipPath2)" font-family="sans-serif" stroke="none">nastaven</text>
      <text x="410.9064" xml:space="preserve" y="517.7128" clip-path="url(#clipPath2)" font-family="sans-serif" stroke="none">tmavý režim?</text>
    </g>
    <g fill="url(#linearGradient4)" text-rendering="geometricPrecision" shape-rendering="geometricPrecision" transform="matrix(1,0,0,1,-5,15)" stroke="url(#linearGradient4)">
      <path d="M489.5587 324.5448 L570.0587 367.0448 L489.5587 409.5448 L409.0587 367.0448 Z" stroke="none" clip-path="url(#clipPath2)"/>
    </g>
    <g text-rendering="geometricPrecision" stroke-miterlimit="1.45" shape-rendering="geometricPrecision" transform="matrix(1,0,0,1,-5,15)" stroke-linecap="butt">
      <path fill="none" d="M489.5587 324.5448 L570.0587 367.0448 L489.5587 409.5448 L409.0587 367.0448 Z" clip-path="url(#clipPath2)"/>
      <text x="438.1544" xml:space="preserve" y="364.5136" clip-path="url(#clipPath2)" font-family="sans-serif" stroke="none">Je režim nastaven</text>
      <text x="458.8409" xml:space="preserve" y="378.6464" clip-path="url(#clipPath2)" font-family="sans-serif" stroke="none">v zařízení?</text>
    </g>
    <g fill="url(#linearGradient5)" text-rendering="geometricPrecision" shape-rendering="geometricPrecision" transform="matrix(1,0,0,1,-5,15)" stroke="url(#linearGradient5)">
      <path d="M147.0587 588.5448 L289.0587 588.5448 L289.0587 628.5448 L147.0587 628.5448 Z" stroke="none" clip-path="url(#clipPath2)"/>
    </g>
    <g text-rendering="geometricPrecision" stroke-miterlimit="1.45" shape-rendering="geometricPrecision" transform="matrix(1,0,0,1,-5,15)" stroke-linecap="butt">
      <path fill="none" d="M147.0587 588.5448 L289.0587 588.5448 L289.0587 628.5448 L147.0587 628.5448 Z" clip-path="url(#clipPath2)"/>
      <text x="159.9923" xml:space="preserve" y="613.08" clip-path="url(#clipPath2)" font-family="sans-serif" stroke="none">Zobraz tmavý režim</text>
    </g>
    <g fill="url(#linearGradient6)" text-rendering="geometricPrecision" shape-rendering="geometricPrecision" transform="matrix(1,0,0,1,-5,15)" stroke="url(#linearGradient6)">
      <path d="M559.426 588.5448 L688.0002 588.5448 L688.0002 628.5448 L559.426 628.5448 Z" stroke="none" clip-path="url(#clipPath2)"/>
    </g>
    <g text-rendering="geometricPrecision" stroke-miterlimit="1.45" shape-rendering="geometricPrecision" transform="matrix(1,0,0,1,-5,15)" stroke-linecap="butt">
      <path fill="none" d="M559.426 588.5448 L688.0002 588.5448 L688.0002 628.5448 L559.426 628.5448 Z" clip-path="url(#clipPath2)"/>
      <text x="566.426" xml:space="preserve" y="606.0135" clip-path="url(#clipPath2)" font-family="sans-serif" stroke="none">Zobraz světlý režim</text>
      <text x="579.4426" xml:space="preserve" y="620.1464" clip-path="url(#clipPath2)" font-family="sans-serif" stroke="none">(výchozí režim)</text>
    </g>
    <g fill="url(#linearGradient7)" text-rendering="geometricPrecision" shape-rendering="geometricPrecision" transform="matrix(1,0,0,1,-5,15)" stroke="url(#linearGradient7)">
      <circle r="28.7724" clip-path="url(#clipPath2)" cx="420.8859" cy="688.3172" stroke="none"/>
    </g>
    <g text-rendering="geometricPrecision" stroke-miterlimit="1.45" shape-rendering="geometricPrecision" transform="matrix(1,0,0,1,-5,15)" stroke-linecap="butt">
      <circle fill="none" r="28.7724" clip-path="url(#clipPath2)" cx="420.8859" cy="688.3172"/>
      <text x="403.1437" xml:space="preserve" y="692.8524" clip-path="url(#clipPath2)" font-family="sans-serif" stroke="none">Konec</text>
    </g>
    <g text-rendering="geometricPrecision" stroke-miterlimit="1.45" shape-rendering="geometricPrecision" font-family="sans-serif" transform="matrix(1,0,0,1,-5,15)" stroke-linecap="butt">
      <text x="224.7423" xml:space="preserve" y="95.5352" clip-path="url(#clipPath2)" stroke="none">Změna nastavení</text>
    </g>
    <g text-rendering="geometricPrecision" stroke-miterlimit="1.45" shape-rendering="geometricPrecision" font-family="sans-serif" transform="matrix(1,0,0,1,-5,15)" stroke-linecap="butt">
      <text x="406.1095" xml:space="preserve" y="95.5352" clip-path="url(#clipPath2)" stroke="none">Načtení stránky</text>
    </g>
    <g fill="url(#linearGradient8)" text-rendering="geometricPrecision" shape-rendering="geometricPrecision" transform="matrix(1,0,0,1,-5,15)" stroke="url(#linearGradient8)">
      <circle r="28.7724" clip-path="url(#clipPath2)" cx="273.8087" cy="159.7724" stroke="none"/>
    </g>
    <g text-rendering="geometricPrecision" stroke-miterlimit="1.45" shape-rendering="geometricPrecision" transform="matrix(1,0,0,1,-5,15)" stroke-linecap="butt">
      <circle fill="none" r="28.7724" clip-path="url(#clipPath2)" cx="273.8087" cy="159.7724"/>
      <text x="251.3878" xml:space="preserve" y="164.3076" clip-path="url(#clipPath2)" font-family="sans-serif" stroke="none">Začátek</text>
    </g>
    <g fill="url(#linearGradient9)" text-rendering="geometricPrecision" shape-rendering="geometricPrecision" transform="matrix(1,0,0,1,-5,15)" stroke="url(#linearGradient9)">
      <path d="M213.0087 231.0448 L344.8087 231.0448 L334.6087 271.0448 L202.8087 271.0448 Z" stroke="none" clip-path="url(#clipPath2)"/>
    </g>
    <g text-rendering="geometricPrecision" stroke-miterlimit="1.45" shape-rendering="geometricPrecision" transform="matrix(1,0,0,1,-5,15)" stroke-linecap="butt">
      <path fill="none" d="M213.0087 231.0448 L344.8087 231.0448 L334.6087 271.0448 L202.8087 271.0448 Z" clip-path="url(#clipPath2)"/>
      <text x="224.7482" xml:space="preserve" y="255.58" clip-path="url(#clipPath2)" font-family="sans-serif" stroke="none">Přepnutí vzhledu</text>
    </g>
    <g fill="url(#linearGradient10)" text-rendering="geometricPrecision" shape-rendering="geometricPrecision" transform="matrix(1,0,0,1,-5,15)" stroke="url(#linearGradient10)">
      <path d="M273.8087 324.5448 L354.3087 367.0448 L273.8087 409.5448 L193.3087 367.0448 Z" stroke="none" clip-path="url(#clipPath2)"/>
    </g>
    <g text-rendering="geometricPrecision" stroke-miterlimit="1.45" shape-rendering="geometricPrecision" transform="matrix(1,0,0,1,-5,15)" stroke-linecap="butt">
      <path fill="none" d="M273.8087 324.5448 L354.3087 367.0448 L273.8087 409.5448 L193.3087 367.0448 Z" clip-path="url(#clipPath2)"/>
      <text x="231.0997" xml:space="preserve" y="357.4472" clip-path="url(#clipPath2)" font-family="sans-serif" stroke="none">Je v prohlížeči </text>
      <text x="247.9835" xml:space="preserve" y="371.58" clip-path="url(#clipPath2)" font-family="sans-serif" stroke="none">nastaven</text>
      <text x="235.4064" xml:space="preserve" y="385.7128" clip-path="url(#clipPath2)" font-family="sans-serif" stroke="none">tmavý režim?</text>
    </g>
    <g fill="url(#linearGradient11)" text-rendering="geometricPrecision" shape-rendering="geometricPrecision" transform="matrix(1,0,0,1,-5,15)" stroke="url(#linearGradient11)">
      <path d="M559.8089 479.0448 L687.6173 479.0448 L687.6173 519.0448 L559.8089 519.0448 Z" stroke="none" clip-path="url(#clipPath2)"/>
    </g>
    <g text-rendering="geometricPrecision" stroke-miterlimit="1.45" shape-rendering="geometricPrecision" transform="matrix(1,0,0,1,-5,15)" stroke-linecap="butt">
      <path fill="none" d="M559.8089 479.0448 L687.6173 479.0448 L687.6173 519.0448 L559.8089 519.0448 Z" clip-path="url(#clipPath2)"/>
      <text x="566.7453" xml:space="preserve" y="496.5136" clip-path="url(#clipPath2)" font-family="sans-serif" stroke="none">Nastav v prohlížeči </text>
      <text x="588.6213" xml:space="preserve" y="510.6464" clip-path="url(#clipPath2)" font-family="sans-serif" stroke="none">světlý režim</text>
    </g>
    <g fill="url(#linearGradient12)" text-rendering="geometricPrecision" shape-rendering="geometricPrecision" transform="matrix(1,0,0,1,-5,15)" stroke="url(#linearGradient12)">
      <path d="M258.3087 456.5448 L338.8087 499.0448 L258.3087 541.5448 L177.8087 499.0448 Z" stroke="none" clip-path="url(#clipPath2)"/>
    </g>
    <g text-rendering="geometricPrecision" stroke-miterlimit="1.45" shape-rendering="geometricPrecision" transform="matrix(1,0,0,1,-5,15)" stroke-linecap="butt">
      <path fill="none" d="M258.3087 456.5448 L338.8087 499.0448 L258.3087 541.5448 L177.8087 499.0448 Z" clip-path="url(#clipPath2)"/>
      <text x="215.5997" xml:space="preserve" y="489.4472" clip-path="url(#clipPath2)" font-family="sans-serif" stroke="none">Je v prohlížeči </text>
      <text x="232.4835" xml:space="preserve" y="503.58" clip-path="url(#clipPath2)" font-family="sans-serif" stroke="none">nastaven</text>
      <text x="219.9064" xml:space="preserve" y="517.7128" clip-path="url(#clipPath2)" font-family="sans-serif" stroke="none">tmavý režim?</text>
    </g>
    <g fill="url(#linearGradient13)" text-rendering="geometricPrecision" shape-rendering="geometricPrecision" transform="matrix(1,0,0,1,-5,15)" stroke="url(#linearGradient13)">
      <path d="M20.0002 479.0448 L147.8086 479.0448 L147.8086 519.0448 L20.0002 519.0448 Z" stroke="none" clip-path="url(#clipPath2)"/>
    </g>
    <g text-rendering="geometricPrecision" stroke-miterlimit="1.45" shape-rendering="geometricPrecision" transform="matrix(1,0,0,1,-5,15)" stroke-linecap="butt">
      <path fill="none" d="M20.0002 479.0448 L147.8086 479.0448 L147.8086 519.0448 L20.0002 519.0448 Z" clip-path="url(#clipPath2)"/>
      <text x="26.9366" xml:space="preserve" y="496.5136" clip-path="url(#clipPath2)" font-family="sans-serif" stroke="none">Nastav v prohlížeči </text>
      <text x="48.0333" xml:space="preserve" y="510.6464" clip-path="url(#clipPath2)" font-family="sans-serif" stroke="none">tmavý režim</text>
    </g>
    <g text-rendering="geometricPrecision" stroke-miterlimit="1.45" shape-rendering="geometricPrecision" font-family="sans-serif" transform="matrix(1,0,0,1,-5,15)" stroke-linecap="butt">
      <text x="673.8772" xml:space="preserve" y="95.5352" clip-path="url(#clipPath2)" stroke="none">Reset nastavení</text>
    </g>
    <g fill="url(#linearGradient14)" text-rendering="geometricPrecision" shape-rendering="geometricPrecision" transform="matrix(1,0,0,1,-5,15)" stroke="url(#linearGradient14)">
      <circle r="28.7724" clip-path="url(#clipPath2)" cx="719.1175" cy="159.7724" stroke="none"/>
    </g>
    <g text-rendering="geometricPrecision" stroke-miterlimit="1.45" shape-rendering="geometricPrecision" transform="matrix(1,0,0,1,-5,15)" stroke-linecap="butt">
      <circle fill="none" r="28.7724" clip-path="url(#clipPath2)" cx="719.1175" cy="159.7724"/>
      <text x="696.6965" xml:space="preserve" y="164.3076" clip-path="url(#clipPath2)" font-family="sans-serif" stroke="none">Začátek</text>
    </g>
    <g fill="url(#linearGradient15)" text-rendering="geometricPrecision" shape-rendering="geometricPrecision" transform="matrix(1,0,0,1,-5,15)" stroke="url(#linearGradient15)">
      <path d="M658.3174 231.0448 L790.1174 231.0448 L779.9175 271.0448 L648.1174 271.0448 Z" stroke="none" clip-path="url(#clipPath2)"/>
    </g>
    <g text-rendering="geometricPrecision" stroke-miterlimit="1.45" shape-rendering="geometricPrecision" transform="matrix(1,0,0,1,-5,15)" stroke-linecap="butt">
      <path fill="none" d="M658.3174 231.0448 L790.1174 231.0448 L779.9175 271.0448 L648.1174 271.0448 Z" clip-path="url(#clipPath2)"/>
      <text x="678.5911" xml:space="preserve" y="255.58" clip-path="url(#clipPath2)" font-family="sans-serif" stroke="none">Reset vzhledu</text>
    </g>
    <g fill="url(#linearGradient16)" text-rendering="geometricPrecision" shape-rendering="geometricPrecision" transform="matrix(1,0,0,1,-5,15)" stroke="url(#linearGradient16)">
      <path d="M655.2133 347.0448 L783.0217 347.0448 L783.0217 387.0448 L655.2133 387.0448 Z" stroke="none" clip-path="url(#clipPath2)"/>
    </g>
    <g text-rendering="geometricPrecision" stroke-miterlimit="1.45" shape-rendering="geometricPrecision" transform="matrix(1,0,0,1,-5,15)" stroke-linecap="butt">
      <path fill="none" d="M655.2133 347.0448 L783.0217 347.0448 L783.0217 387.0448 L655.2133 387.0448 Z" clip-path="url(#clipPath2)"/>
      <text x="660.2834" xml:space="preserve" y="364.5136" clip-path="url(#clipPath2)" font-family="sans-serif" stroke="none">Odstraň v prohlížeči</text>
      <text x="667.4641" xml:space="preserve" y="378.6464" clip-path="url(#clipPath2)" font-family="sans-serif" stroke="none">nastavení režimu </text>
    </g>
    <g text-rendering="geometricPrecision" stroke-miterlimit="1.45" shape-rendering="geometricPrecision" transform="matrix(1,0,0,1,-5,15)" stroke-linecap="butt">
      <path fill="none" d="M451.3087 188.5448 L451.3087 200.5448" clip-path="url(#clipPath2)"/>
    </g>
    <g text-rendering="geometricPrecision" stroke-miterlimit="1.45" shape-rendering="geometricPrecision" transform="matrix(1,0,0,1,-5,15)" stroke-linecap="butt">
      <path d="M451.3087 208.5448 L456.3087 196.5448 L451.3087 199.5448 L446.3087 196.5448 Z" stroke="none" clip-path="url(#clipPath2)"/>
      <path fill="none" d="M489.5587 272.2891 L489.5587 316.5448" clip-path="url(#clipPath2)"/>
      <path d="M489.5587 324.5448 L494.5587 312.5448 L489.5587 315.5448 L484.5587 312.5448 Z" clip-path="url(#clipPath2)" stroke="none"/>
      <text x="491.5587" xml:space="preserve" y="312.1464" clip-path="url(#clipPath2)" font-family="sans-serif" stroke="none">Ne</text>
      <path fill="none" d="M449.3087 388.3261 L449.3087 448.5448" clip-path="url(#clipPath2)"/>
      <path d="M449.3087 456.5448 L454.3087 444.5448 L449.3087 447.5448 L444.3087 444.5448 Z" clip-path="url(#clipPath2)" stroke="none"/>
      <text x="424.2111" xml:space="preserve" y="425.83" clip-path="url(#clipPath2)" font-family="sans-serif" stroke="none">Ano</text>
      <path fill="none" d="M409.0587 520.2995 L409.0587 557.0448 L265.3921 557.0448 L265.3921 580.514" clip-path="url(#clipPath2)"/>
      <path d="M265.3921 588.514 L270.3921 576.514 L265.3921 579.514 L260.3921 576.514 Z" clip-path="url(#clipPath2)" stroke="none"/>
      <text x="267.3921" xml:space="preserve" y="579.0135" clip-path="url(#clipPath2)" font-family="sans-serif" stroke="none">Ano</text>
      <path fill="none" d="M489.5587 520.2995 L489.5587 557.0448 L597.9982 557.0448 L597.9982 580.514" clip-path="url(#clipPath2)"/>
      <path d="M597.9982 588.514 L602.9982 576.514 L597.9982 579.514 L592.9982 576.514 Z" clip-path="url(#clipPath2)" stroke="none"/>
      <text x="572.1496" xml:space="preserve" y="552.5135" clip-path="url(#clipPath2)" font-family="sans-serif" stroke="none">Ne</text>
      <path fill="none" d="M529.8087 388.2995 L529.8087 425.0448 L703.1174 425.0448 L703.1174 534.5448 L649.4279 534.5448 L649.4279 580.5184" clip-path="url(#clipPath2)"/>
      <path d="M649.4279 588.5184 L654.4279 576.5184 L649.4279 579.5184 L644.4279 576.5184 Z" clip-path="url(#clipPath2)" stroke="none"/>
      <text x="630.3513" xml:space="preserve" y="420.5136" clip-path="url(#clipPath2)" font-family="sans-serif" stroke="none">Ne</text>
      <path fill="none" d="M218.0587 628.5448 L218.0587 644.0448 L399.8625 644.0448 L399.8625 660.6529" clip-path="url(#clipPath2)"/>
      <path d="M399.8625 668.6529 L404.8625 656.6529 L399.8625 659.6529 L394.8625 656.6529 Z" clip-path="url(#clipPath2)" stroke="none"/>
      <path fill="none" d="M623.7131 628.5448 L623.7131 644.0448 L441.9094 644.0448 L441.9094 660.6529" clip-path="url(#clipPath2)"/>
      <path d="M441.9094 668.6529 L446.9094 656.6529 L441.9094 659.6529 L436.9094 656.6529 Z" clip-path="url(#clipPath2)" stroke="none"/>
      <path fill="none" d="M273.8087 188.5448 L273.8087 223.0448" clip-path="url(#clipPath2)"/>
      <path d="M273.8087 231.0448 L278.8087 219.0448 L273.8087 222.0448 L268.8087 219.0448 Z" clip-path="url(#clipPath2)" stroke="none"/>
      <path fill="none" d="M273.8087 271.071 L273.8087 316.5448" clip-path="url(#clipPath2)"/>
      <path d="M273.8087 324.5448 L278.8087 312.5448 L273.8087 315.5448 L268.8087 312.5448 Z" clip-path="url(#clipPath2)" stroke="none"/>
      <path fill="none" d="M314.0587 388.2893 L314.0587 441.0448 L444.3087 441.0448 Q444.3087 436.0448 449.3087 436.0448 Q454.3087 436.0448 454.3087 441.0448 L623.7131 441.0448 L623.7131 471.0448" clip-path="url(#clipPath2)"/>
      <path d="M623.7131 479.0448 L628.7131 467.0448 L623.7131 470.0448 L618.7131 467.0448 Z" clip-path="url(#clipPath2)" stroke="none"/>
      <text x="534.7507" xml:space="preserve" y="454.6464" clip-path="url(#clipPath2)" font-family="sans-serif" stroke="none">Ano</text>
      <path fill="none" d="M623.7131 519.0448 L623.7131 580.5109" clip-path="url(#clipPath2)"/>
      <path d="M623.7131 588.5109 L628.7131 576.5109 L623.7131 579.5109 L618.7131 576.5109 Z" clip-path="url(#clipPath2)" stroke="none"/>
      <path fill="none" d="M413.0587 272.3261 L413.0587 309.0448 L369.8087 309.0448 L369.8087 425.0448 L319.0587 425.0448 Q319.0587 420.0448 314.0587 420.0448 Q309.0587 420.0448 309.0587 425.0448 L258.3087 425.0448 L258.3087 448.5448" clip-path="url(#clipPath2)"/>
      <path d="M258.3087 456.5448 L263.3087 444.5448 L258.3087 447.5448 L253.3087 444.5448 Z" clip-path="url(#clipPath2)" stroke="none"/>
      <text x="347.9611" xml:space="preserve" y="298.08" clip-path="url(#clipPath2)" font-family="sans-serif" stroke="none">Ano</text>
      <path fill="none" d="M218.0587 520.2969 L218.0587 580.5115" clip-path="url(#clipPath2)"/>
      <path d="M218.0587 588.5115 L223.0587 576.5115 L218.0587 579.5115 L213.0587 576.5115 Z" clip-path="url(#clipPath2)" stroke="none"/>
      <text x="220.0587" xml:space="preserve" y="560.1464" clip-path="url(#clipPath2)" font-family="sans-serif" stroke="none">Ano</text>
      <path fill="none" d="M298.5587 520.2894 L298.5587 552.0448 Q303.5587 552.0448 303.5587 557.0448 Q303.5587 562.0448 298.5587 562.0448 L298.5587 573.0448 L572.2834 573.0448 L572.2834 580.5145" clip-path="url(#clipPath2)"/>
      <path d="M572.2834 588.5145 L577.2834 576.5145 L572.2834 579.5145 L567.2834 576.5145 Z" clip-path="url(#clipPath2)" stroke="none"/>
      <text x="404.8353" xml:space="preserve" y="586.6464" clip-path="url(#clipPath2)" font-family="sans-serif" stroke="none">Ne</text>
      <path fill="none" d="M233.5587 388.3261 L233.5587 425.0448 L83.9044 425.0448 L83.9044 471.0448" clip-path="url(#clipPath2)"/>
      <path d="M83.9044 479.0448 L88.9044 467.0448 L83.9044 470.0448 L78.9044 467.0448 Z" clip-path="url(#clipPath2)" stroke="none"/>
      <text x="113.5426" xml:space="preserve" y="438.6464" clip-path="url(#clipPath2)" font-family="sans-serif" stroke="none">Ne</text>
      <path fill="none" d="M83.9044 519.0448 L83.9044 557.0448 L170.7254 557.0448 L170.7254 580.514" clip-path="url(#clipPath2)"/>
      <path d="M170.7254 588.514 L175.7254 576.514 L170.7254 579.514 L165.7254 576.514 Z" clip-path="url(#clipPath2)" stroke="none"/>
      <path fill="none" d="M719.1174 188.5448 L719.1174 223.0448" clip-path="url(#clipPath2)"/>
      <path d="M719.1174 231.0448 L724.1174 219.0448 L719.1174 222.0448 L714.1174 219.0448 Z" clip-path="url(#clipPath2)" stroke="none"/>
      <path fill="none" d="M719.1174 271.0819 L719.1174 339.0448" clip-path="url(#clipPath2)"/>
      <path d="M719.1174 347.0448 L724.1174 335.0448 L719.1174 338.0448 L714.1174 335.0448 Z" clip-path="url(#clipPath2)" stroke="none"/>
      <path fill="none" d="M719.1174 387.0847 L719.1174 550.5448 L675.1428 550.5448 L675.1428 580.5077" clip-path="url(#clipPath2)"/>
      <path d="M675.1428 588.5077 L680.1428 576.5077 L675.1428 579.5077 L670.1428 576.5077 Z" clip-path="url(#clipPath2)" stroke="none"/>
    </g>
  </g>
</svg>
