<?xml version="1.0" encoding="UTF-8" standalone="no"?>
<!--Created by yFiles for HTML 2.5.0.3-->
<graphml xsi:schemaLocation="http://graphml.graphdrawing.org/xmlns http://www.yworks.com/xml/schema/graphml.html/2.0/ygraphml.xsd " xmlns="http://graphml.graphdrawing.org/xmlns" xmlns:demostyle2="http://www.yworks.com/yFilesHTML/demos/FlatDemoStyle/2.0" xmlns:demostyle="http://www.yworks.com/yFilesHTML/demos/FlatDemoStyle/1.0" xmlns:icon-style="http://www.yworks.com/yed-live/icon-style/1.0" xmlns:bpmn="http://www.yworks.com/xml/yfiles-bpmn/2.0" xmlns:demotablestyle="http://www.yworks.com/yFilesHTML/demos/FlatDemoTableStyle/1.0" xmlns:uml="http://www.yworks.com/yFilesHTML/demos/UMLDemoStyle/1.0" xmlns:GraphvizNodeStyle="http://www.yworks.com/yFilesHTML/graphviz-node-style/1.0" xmlns:VuejsNodeStyle="http://www.yworks.com/demos/yfiles-vuejs-node-style/1.0" xmlns:explorer-style="http://www.yworks.com/data-explorer/1.0" xmlns:y="http://www.yworks.com/xml/yfiles-common/3.0" xmlns:x="http://www.yworks.com/xml/yfiles-common/markup/3.0" xmlns:yjs="http://www.yworks.com/xml/yfiles-for-html/2.0/xaml" xmlns:xsi="http://www.w3.org/2001/XMLSchema-instance">
	<key id="d0" for="node" attr.type="int" attr.name="zOrder" y:attr.uri="http://www.yworks.com/xml/yfiles-z-order/1.0/zOrder"/>
	<key id="d1" for="node" attr.type="boolean" attr.name="Expanded" y:attr.uri="http://www.yworks.com/xml/yfiles-common/2.0/folding/Expanded">
		<default>true</default>
	</key>
	<key id="d2" for="node" attr.type="string" attr.name="url"/>
	<key id="d3" for="node" attr.type="string" attr.name="description"/>
	<key id="d4" for="node" attr.name="NodeLabels" y:attr.uri="http://www.yworks.com/xml/yfiles-common/2.0/NodeLabels"/>
	<key id="d5" for="node" attr.name="NodeGeometry" y:attr.uri="http://www.yworks.com/xml/yfiles-common/2.0/NodeGeometry"/>
	<key id="d6" for="all" attr.name="UserTags" y:attr.uri="http://www.yworks.com/xml/yfiles-common/2.0/UserTags"/>
	<key id="d7" for="node" attr.name="NodeStyle" y:attr.uri="http://www.yworks.com/xml/yfiles-common/2.0/NodeStyle"/>
	<key id="d8" for="node" attr.name="NodeViewState" y:attr.uri="http://www.yworks.com/xml/yfiles-common/2.0/folding/1.1/NodeViewState"/>
	<key id="d9" for="edge" attr.type="string" attr.name="url"/>
	<key id="d10" for="edge" attr.type="string" attr.name="description"/>
	<key id="d11" for="edge" attr.name="EdgeLabels" y:attr.uri="http://www.yworks.com/xml/yfiles-common/2.0/EdgeLabels"/>
	<key id="d12" for="edge" attr.name="EdgeGeometry" y:attr.uri="http://www.yworks.com/xml/yfiles-common/2.0/EdgeGeometry"/>
	<key id="d13" for="edge" attr.name="EdgeStyle" y:attr.uri="http://www.yworks.com/xml/yfiles-common/2.0/EdgeStyle"/>
	<key id="d14" for="edge" attr.name="EdgeViewState" y:attr.uri="http://www.yworks.com/xml/yfiles-common/2.0/folding/1.1/EdgeViewState"/>
	<key id="d15" for="port" attr.name="PortLabels" y:attr.uri="http://www.yworks.com/xml/yfiles-common/2.0/PortLabels"/>
	<key id="d16" for="port" attr.name="PortLocationParameter" y:attr.uri="http://www.yworks.com/xml/yfiles-common/2.0/PortLocationParameter">
		<default>
			<x:Static Member="y:FreeNodePortLocationModel.NodeCenterAnchored"/>
		</default>
	</key>
	<key id="d17" for="port" attr.name="PortStyle" y:attr.uri="http://www.yworks.com/xml/yfiles-common/2.0/PortStyle">
		<default>
			<x:Static Member="y:VoidPortStyle.Instance"/>
		</default>
	</key>
	<key id="d18" for="port" attr.name="PortViewState" y:attr.uri="http://www.yworks.com/xml/yfiles-common/2.0/folding/1.1/PortViewState"/>
	<key id="d19" attr.name="SharedData" y:attr.uri="http://www.yworks.com/xml/yfiles-common/2.0/SharedData"/>
	<data key="d19">
		<y:SharedData>
			<yjs:Font x:Key="1" fontSize="12" fontFamily="'Arial'"/>
			<y:FreeNodePortLocationModelParameter x:Key="2" Ratio="0.5,0"/>
			<yjs:PolylineEdgeStyle x:Key="3" stroke="{y:GraphMLReference 4}" targetArrow="{y:GraphMLReference 5}"/>
			<yjs:Stroke x:Key="4" fill="#FF663800"/>
			<yjs:Arrow x:Key="5" type="TRIANGLE" scale="0.75" stroke="#FF663800" fill="#FF663800" cropLength="1"/>
		</y:SharedData>
	</data>
	<graph id="G" edgedefault="directed">
		<data key="d6">
			<y:Json>{"version":"2.0.0","__mg":"yed-live","theme":{"name":"light","version":"1.0.0"},"layout":"layout-flowchart","config":{"p_positiveBranchLabel":[],"p_negativeBranchLabel":[],"p_layoutOrientation":0,"p_preferredPositiveBranchDirection":1,"p_preferredNegativeBranchDirection":12,"p_inEdgeGrouping":"optimized","p_allowFlatwiseEdges":true,"p_nodeToNodeDistance":30,"p_minimumEdgeDistance":30,"p_minimumEdgeLength":20,"p_placeNodeLabels":true}}</y:Json>
		</data>
		<node id="n0">
			<data key="d0">4</data>
			<data key="d4">
				<x:List>
					<y:Label>
						<y:Label.Text>StartBootstrap</y:Label.Text>
						<y:Label.LayoutParameter>
							<y:GroupNodeLabelModelParameter PlaceOnTab="false">
								<y:GroupNodeLabelModelParameter.Model>
									<y:GroupNodeLabelModel/>
								</y:GroupNodeLabelModelParameter.Model>
							</y:GroupNodeLabelModelParameter>
						</y:Label.LayoutParameter>
						<y:Label.Style>
							<yjs:DefaultLabelStyle verticalTextAlignment="CENTER" horizontalTextAlignment="CENTER" wrapping="CHARACTER_ELLIPSIS" font="{y:GraphMLReference 1}" textFill="#FFEEEEEE"/>
						</y:Label.Style>
					</y:Label>
				</x:List>
			</data>
			<data key="d5">
				<y:RectD X="0" Y="-27" Width="94" Height="324"/>
			</data>
			<data key="d7">
				<yjs:GroupNodeStyle tabWidth="30" tabHeight="20" tabInset="3" iconForegroundFill="#FF0B7189" iconOffset="2" hitTransparentContentArea="true" contentAreaFill="#FFFFFFFF" tabFill="#FF0B7189">
					<yjs:GroupNodeStyle.stroke>
						<yjs:Stroke fill="#FF0B7189" lineCap="SQUARE" thickness="2"/>
					</yjs:GroupNodeStyle.stroke>
				</yjs:GroupNodeStyle>
			</data>
			<graph id="n0:" edgedefault="directed">
				<node id="n0::n0">
					<data key="d0">1</data>
					<data key="d4">
						<x:List>
							<y:Label LayoutParameter="{x:Static y:InteriorStretchLabelModel.Center}">
								<y:Label.Text>WEB</y:Label.Text>
								<y:Label.Style>
									<yjs:DefaultLabelStyle verticalTextAlignment="CENTER" horizontalTextAlignment="CENTER" wrapping="WORD" clipText="false" font="{y:GraphMLReference 1}" textFill="BLACK"/>
								</y:Label.Style>
							</y:Label>
						</x:List>
					</data>
					<data key="d5">
						<y:RectD X="7" Y="0" Width="80" Height="50"/>
					</data>
					<data key="d7">
						<bpmn:ActivityNodeStyle minimumSize="40,40"/>
					</data>
					<port name="p0"/>
					<port name="p1">
						<data key="d16">
							<y:FreeNodePortLocationModelParameter Ratio="0.5,1"/>
						</data>
					</port>
					<port name="p2"/>
				</node>
				<node id="n0::n1">
					<data key="d0">2</data>
					<data key="d4">
						<x:List>
							<y:Label LayoutParameter="{x:Static y:InteriorStretchLabelModel.Center}">
								<y:Label.Text>Technologie</y:Label.Text>
								<y:Label.Style>
									<yjs:DefaultLabelStyle verticalTextAlignment="CENTER" horizontalTextAlignment="CENTER" wrapping="WORD" clipText="false" font="{y:GraphMLReference 1}" textFill="BLACK"/>
								</y:Label.Style>
							</y:Label>
						</x:List>
					</data>
					<data key="d5">
						<y:RectD X="7" Y="80" Width="80" Height="50"/>
					</data>
					<data key="d7">
						<bpmn:ActivityNodeStyle minimumSize="40,40"/>
					</data>
					<port name="p0"/>
					<port name="p1">
						<data key="d16">
							<y:FreeNodePortLocationModelParameter Ratio="0.5,0.019230769230769218"/>
						</data>
					</port>
					<port name="p2">
						<data key="d16">
							<y:FreeNodePortLocationModelParameter Ratio="0.5,1"/>
						</data>
					</port>
					<port name="p3">
						<data key="d16">
							<y:FreeNodePortLocationModelParameter Ratio="0.5,0"/>
						</data>
					</port>
				</node>
				<node id="n0::n2">
					<data key="d0">3</data>
					<data key="d4">
						<x:List>
							<y:Label LayoutParameter="{x:Static y:InteriorStretchLabelModel.Center}">
								<y:Label.Text><![CDATA[O kurzu]]></y:Label.Text>
								<y:Label.Style>
									<yjs:DefaultLabelStyle verticalTextAlignment="CENTER" horizontalTextAlignment="CENTER" wrapping="WORD" clipText="false" font="{y:GraphMLReference 1}" textFill="BLACK"/>
								</y:Label.Style>
							</y:Label>
						</x:List>
					</data>
					<data key="d5">
						<y:RectD X="7" Y="160" Width="80" Height="50"/>
					</data>
					<data key="d7">
						<bpmn:ActivityNodeStyle minimumSize="40,40"/>
					</data>
					<port name="p0"/>
					<port name="p1">
						<data key="d16">
							<y:GraphMLReference ResourceKey="2"/>
						</data>
					</port>
					<port name="p2"/>
				</node>
				<node id="n0::n3">
					<data key="d0">4</data>
					<data key="d4">
						<x:List>
							<y:Label LayoutParameter="{x:Static y:InteriorStretchLabelModel.Center}">
								<y:Label.Text>Kontakt</y:Label.Text>
								<y:Label.Style>
									<yjs:DefaultLabelStyle verticalTextAlignment="CENTER" horizontalTextAlignment="CENTER" wrapping="WORD" clipText="false" font="{y:GraphMLReference 1}" textFill="BLACK"/>
								</y:Label.Style>
							</y:Label>
						</x:List>
					</data>
					<data key="d5">
						<y:RectD X="7" Y="240" Width="80" Height="50"/>
					</data>
					<data key="d7">
						<bpmn:ActivityNodeStyle minimumSize="40,40"/>
					</data>
					<port name="p0"/>
					<port name="p1">
						<data key="d16">
							<y:GraphMLReference ResourceKey="2"/>
						</data>
					</port>
					<port name="p2"/>
				</node>
				<edge id="n0::e0" source="n0::n0" target="n0::n1" sourceport="p1" targetport="p3">
					<data key="d13">
						<y:GraphMLReference ResourceKey="3"/>
					</data>
				</edge>
				<edge id="n0::e1" source="n0::n1" target="n0::n2" sourceport="p2" targetport="p1">
					<data key="d13">
						<y:GraphMLReference ResourceKey="3"/>
					</data>
				</edge>
				<edge id="n0::e2" source="n0::n2" target="n0::n3" sourceport="p2" targetport="p2">
					<data key="d13">
						<yjs:PolylineEdgeStyle stroke="{y:GraphMLReference 4}" targetArrow="{y:GraphMLReference 5}"/>
					</data>
				</edge>
			</graph>
		</node>
	</graph>
</graphml>