<?xml version="1.0" encoding="UTF-8" standalone="no"?>
<svg
   xmlns:dc="http://purl.org/dc/elements/1.1/"
   xmlns:cc="http://creativecommons.org/ns#"
   xmlns:rdf="http://www.w3.org/1999/02/22-rdf-syntax-ns#"
   xmlns:svg="http://www.w3.org/2000/svg"
   xmlns="http://www.w3.org/2000/svg"
   xmlns:sodipodi="http://sodipodi.sourceforge.net/DTD/sodipodi-0.dtd"
   xmlns:inkscape="http://www.inkscape.org/namespaces/inkscape"
   viewBox="0 0 360 408"
   id="svg2"
   version="1.1"
   inkscape:version="0.91 r13725"
   sodipodi:docname="html.svg"
   width="360"
   height="408"
   inkscape:export-filename="/Users/tom/Downloads/html.png"
   inkscape:export-xdpi="90"
   inkscape:export-ydpi="90">
  <metadata
     id="metadata18">
    <rdf:RDF>
      <cc:Work
         rdf:about="">
        <dc:format>image/svg+xml</dc:format>
        <dc:type
           rdf:resource="http://purl.org/dc/dcmitype/StillImage" />
        <dc:title>HTML Logo</dc:title>
      </cc:Work>
    </rdf:RDF>
  </metadata>
  <defs
     id="defs16" />
  <sodipodi:namedview
     pagecolor="#ffffff"
     bordercolor="#666666"
     borderopacity="1"
     objecttolerance="10"
     gridtolerance="10"
     guidetolerance="10"
     inkscape:pageopacity="0"
     inkscape:pageshadow="2"
     inkscape:window-width="1280"
     inkscape:window-height="751"
     id="namedview14"
     showgrid="false"
     inkscape:zoom="0.45384615"
     inkscape:cx="-263.15255"
     inkscape:cy="260"
     inkscape:window-x="0"
     inkscape:window-y="0"
     inkscape:window-maximized="0"
     inkscape:current-layer="svg2" />
  <title
     id="title4">HTML Logo</title>
  <g
     id="g10435"
     transform="scale(1.2,1.2)">
    <path
       style="fill:#e34f26;fill-opacity:1"
       inkscape:connector-curvature="0"
       id="path6"
       d="M 27.272727,305.46875 0,0 300,0 272.72727,305.46875 149.66741,340" />
    <path
       style="fill:#ef6529;fill-opacity:1"
       inkscape:connector-curvature="0"
       id="path8"
       d="m 150.33259,313.4375 99.11309,-27.22657 23.28159,-261.64061 -122.39468,0" />
    <path
       style="fill:#ecedee;fill-opacity:1"
       inkscape:connector-curvature="0"
       id="path10"
       d="m 150.33259,138.12501 -49.88913,0 -3.325943,-38.51564 53.215073,0 0,-37.18749 -94.456759,0 9.977828,113.55469 84.478931,0 z m 0,97.61718 -42.57206,-11.28906 -2.66075,-29.88281 -37.250556,0 4.656319,59.10156 77.827047,21.25 z" />
    <path
       style="fill:#ffffff;fill-opacity:1"
       inkscape:connector-curvature="0"
       id="path12"
       d="m 150.33259,175.97657 45.89801,0 -4.65632,48.47656 -41.24169,11.28906 0,39.17969 76.49668,-21.25 10.64301,-115.54687 -87.13969,0 z m 0,-113.55469 0,37.18749 90.46564,0 3.32594,-37.18749 z" />
  </g>
</svg>
