<?xml version="1.0" encoding="UTF-8" standalone="no"?>
<svg
   xmlns:dc="http://purl.org/dc/elements/1.1/"
   xmlns:cc="http://creativecommons.org/ns#"
   xmlns:rdf="http://www.w3.org/1999/02/22-rdf-syntax-ns#"
   xmlns:svg="http://www.w3.org/2000/svg"
   xmlns="http://www.w3.org/2000/svg"
   xmlns:sodipodi="http://sodipodi.sourceforge.net/DTD/sodipodi-0.dtd"
   xmlns:inkscape="http://www.inkscape.org/namespaces/inkscape"
   viewBox="0 0 360 408"
   id="svg2"
   version="1.1"
   inkscape:version="0.91 r13725"
   sodipodi:docname="js.svg"
   width="360"
   height="408"
   inkscape:export-filename="/Users/tom/Downloads/js.png"
   inkscape:export-xdpi="90"
   inkscape:export-ydpi="90">
  <metadata
     id="metadata18">
    <rdf:RDF>
      <cc:Work
         rdf:about="">
        <dc:format>image/svg+xml</dc:format>
        <dc:type
           rdf:resource="http://purl.org/dc/dcmitype/StillImage" />
        <dc:title>Javascript Logo</dc:title>
      </cc:Work>
    </rdf:RDF>
  </metadata>
  <defs
     id="defs16" />
  <sodipodi:namedview
     pagecolor="#ffffff"
     bordercolor="#666666"
     borderopacity="1"
     objecttolerance="10"
     gridtolerance="10"
     guidetolerance="10"
     inkscape:pageopacity="0"
     inkscape:pageshadow="2"
     inkscape:window-width="1280"
     inkscape:window-height="751"
     id="namedview14"
     showgrid="false"
     inkscape:zoom="0.45384615"
     inkscape:cx="-175.01695"
     inkscape:cy="260"
     inkscape:window-x="0"
     inkscape:window-y="0"
     inkscape:window-maximized="0"
     inkscape:current-layer="svg2" />
  <title
     id="title4">Javascript Logo</title>
  <g
     id="g9836">
    <path
       style="fill:#e5a228;fill-opacity:1"
       inkscape:connector-curvature="0"
       id="path6"
       d="M 0,0 360,0 327.27272,366.5625 179.60089,408 32.727272,366.5625" />
    <path
       style="fill:#f1bf27;fill-opacity:1"
       inkscape:connector-curvature="0"
       id="path8"
       d="m 180.39911,376.125 118.93571,-32.67188 27.9379,-313.96874 -146.87361,0" />
    <path
       style="fill:#ecedee;fill-opacity:1"
       inkscape:connector-curvature="0"
       id="path10"
       d="m 180.39911,74.90626 -90.199554,0 -8.780487,136.26562 98.980041,0 0,-45.42187 -52.68292,0 3.99113,-46.21877 48.69179,0 z m 0,207.98437 -51.08647,-13.54687 -3.1929,-35.85938 -44.700671,0 5.587583,70.92188 93.392458,25.5 z" />
    <path
       style="fill:#ffffff;fill-opacity:1"
       inkscape:connector-curvature="0"
       id="path12"
       d="m 180.39911,211.17188 55.07761,0 -5.58758,58.17188 -49.49003,13.54687 0,47.01563 91.79601,-25.5 12.77162,-138.65625 -104.56763,0 z m 0,-136.26562 90.19956,0 14.36807,68.53124 -44.70066,0 -6.38582,-23.90626 -53.48115,0 z" />
  </g>
</svg>
