<?xml version="1.0" encoding="UTF-8" standalone="no"?>
<!-- Created with Inkscape (http://www.inkscape.org/) -->
<svg
   xmlns:dc="http://purl.org/dc/elements/1.1/"
   xmlns:cc="http://creativecommons.org/ns#"
   xmlns:rdf="http://www.w3.org/1999/02/22-rdf-syntax-ns#"
   xmlns:svg="http://www.w3.org/2000/svg"
   xmlns="http://www.w3.org/2000/svg"
   xmlns:xlink="http://www.w3.org/1999/xlink"
   xmlns:sodipodi="http://sodipodi.sourceforge.net/DTD/sodipodi-0.dtd"
   xmlns:inkscape="http://www.inkscape.org/namespaces/inkscape"

   width="100"
   height="90"
   viewBox="0 0 100 90"
   id="svg2"

   version="1.1"
   inkscape:version="0.48.5 r10040"
   sodipodi:docname="paper-clip.svg">
  <metadata
     id="metadata16">
    <rdf:RDF>
      <cc:Work
         rdf:about="">
        <dc:format>image/svg+xml</dc:format>
        <dc:type
           rdf:resource="http://purl.org/dc/dcmitype/StillImage" />
        <dc:title />
      </cc:Work>
    </rdf:RDF>
  </metadata>
  <sodipodi:namedview
     pagecolor="#ffffff"
     bordercolor="#666666"
     borderopacity="1"
     objecttolerance="10"
     gridtolerance="10"
     guidetolerance="10"
     inkscape:pageopacity="0"
     inkscape:pageshadow="2"
     inkscape:window-width="1280"
     inkscape:window-height="751"
     id="namedview14"
     showgrid="false"
     showguides="true"
     inkscape:guide-bbox="true"
     inkscape:zoom="0.81562657"
     inkscape:cx="-83.694202"
     inkscape:cy="90.361569"
     inkscape:window-x="0"
     inkscape:window-y="0"
     inkscape:window-maximized="0"
     inkscape:current-layer="svg2">
    <sodipodi:guide
       orientation="0,1"
       position="140.9959,2.4521026"
       id="guide4016" />
    <sodipodi:guide
       orientation="1,0"
       position="123.52467,69.578411"
       id="guide4018" />
    <sodipodi:guide
       orientation="1,0"
       position="23.601487,112.79672"
       id="guide2992" />
    <sodipodi:guide
       orientation="0,1"
       position="54.559282,92.566872"
       id="guide2994" />
  </sodipodi:namedview>
  <defs
     id="defs4">
    <filter
       id="filter4313"
       color-interpolation-filters="sRGB">
      <feGaussianBlur
         id="feGaussianBlur4315"
         stdDeviation="1.054277" />
    </filter>
  </defs>
  <g
     id="g4127"
     transform="matrix(0.44497473,0,0,0.4496902,-10.452226,-0.88845464)">
    <path
       id="path4099"
       d="m 203.72357,88.462124 c 3.01793,-2.699416 6.0423,-5.398111 9.0754,-8.095827 24.46409,-23.864026 40.40393,-35.24267 26.99021,-50.775716 L 221.08446,12.224357 C 209.35381,-0.40683531 198.65119,7.6954966 188.03884,17.627769 L 97.626972,99.213154 c -16.265049,15.941766 -14.56431,17.452056 -16.811799,34.024016 0.589519,13.51479 5.815898,14.02085 14.801333,17.88717 18.020174,4.5794 20.740544,1.23413 38.345604,-14.05577 l 86.47554,-77.5845"
       style="fill:none;stroke:#000000;stroke-width:7.0630002;stroke-linecap:round;stroke-linejoin:round"
       inkscape:connector-curvature="0" />
    <path
       id="path4047"
       d="m 29.104639,171.33891 c 1.338965,17.28734 1.669159,19.97571 25.369821,25.0016 22.086876,4.17094 27.905212,0.0451 44.200686,-14.8372 4.218844,-3.56785 8.402664,-7.13965 12.556824,-10.71479"
       style="fill:none;stroke:#000000;stroke-width:7.0630002;stroke-linecap:round;stroke-linejoin:round"
       inkscape:connector-curvature="0" />
    <path
       id="path4106"
       d="m 203.68984,87.162362 c 2.44609,-2.187717 4.89669,-4.374927 7.35303,-6.561493 24.43964,-23.860763 40.36404,-35.237346 26.96035,-50.771731 L 219.31299,12.460981 C 207.59122,-0.17139729 196.89902,7.929544 186.29722,17.860408 L 95.974934,99.433838 C 79.726148,115.37344 81.425561,116.8839 79.182015,133.45533 c 0.590593,13.51465 5.81241,14.02132 14.790356,17.88864 18.004779,4.58146 20.722329,1.23646 38.310039,-14.05103 l 86.38991,-77.573067"
       style="fill:none;stroke:#ffffff;stroke-width:2.9986496;stroke-linecap:round;stroke-linejoin:round;filter:url(#filter4313)"
       inkscape:connector-curvature="0" />
    <path
       id="path4061"
       d="m 27.50041,171.27555 c 1.358279,17.53374 1.566404,20.22389 25.371631,25.27902 22.066848,4.17361 27.880542,0.0484 44.159851,-14.83175 4.302598,-3.6417 8.568728,-7.28752 12.804098,-10.93682"
       style="fill:none;stroke:#ffffff;stroke-width:2.9986496;stroke-linecap:round;stroke-linejoin:round;filter:url(#filter4313)"
       inkscape:connector-curvature="0" />
    <path
       id="path4087"
       d="m 203.69011,87.162119 c 2.446,-2.187635 4.89652,-4.374764 7.35276,-6.56125 24.43964,-23.860763 40.36404,-35.237346 26.96035,-50.771731 L 219.31299,12.460981 C 207.59122,-0.17139729 196.89902,7.929544 186.29722,17.860408 L 95.974934,99.433838 C 79.726148,115.37344 81.425561,116.8839 79.182015,133.45533 c 0.590593,13.51465 5.81241,14.02132 14.790356,17.88864 18.004779,4.58146 20.722349,1.23656 38.310039,-14.05103 l 86.38991,-77.573067"
       style="fill:none;stroke:#ffffff;stroke-width:0.86860889;stroke-linecap:round;stroke-linejoin:round"
       inkscape:connector-curvature="0" />
    <path
       id="path4054"
       d="m 27.50041,171.27555 c 1.358279,17.53374 1.566404,20.22389 25.371631,25.27902 22.067838,4.17348 27.880542,0.0484 44.159851,-14.83175 4.302598,-3.6417 8.568728,-7.28752 12.804098,-10.93682"
       style="fill:none;stroke:#ffffff;stroke-width:0.86860889;stroke-linecap:round;stroke-linejoin:round"
       inkscape:connector-curvature="0" />
  </g>
</svg>
